"Result","logFC","AveExpr","t","P.Value","adj.P.Val","B","ID","GeneID","geneSymbol","chr","strand","riExonStart_0base","riExonEnd","upstreamES","upstreamEE","downstreamES","downstreamEE","unique_event_id"
"Korean"," 0.383786025","0.534759358"," 7.868837","2.967003e-13","1.510798e-09","19.162718221","  14","ENSG00000160201","U2AF1","chr21","-"," 43092955"," 43094563"," 43092955"," 43093249"," 43094470"," 43094563"," 258562755"
"Korean","-0.155198057","0.309101064","-7.570383","1.708755e-12","3.089844e-09","17.428511271","4854","ENSG00000143416","SELENBP1","chr1","-","151369003","151369554","151369003","151369189","151369441","151369554"," 908215744"
"Korean","-0.135015580","0.247734043","-7.553064","1.891711e-12","3.089844e-09","17.328254547","  25","ENSG00000205581","HMGN1","chr21","-"," 39345145"," 39348339"," 39345145"," 39345274"," 39348291"," 39348339"," 236080533"
"Korean"," 0.050121124","0.115994681"," 7.510538","2.427215e-12","3.089844e-09","17.082599536","  26","ENSG00000205581","HMGN1","chr21","-"," 39348421"," 39348577"," 39348421"," 39348451"," 39348544"," 39348577"," 236090991"
"Korean","-0.046321924","0.083585106","-7.073177","3.020778e-11","3.076360e-08","14.600311830"," 591","ENSG00000132475","H3-3B","chr17","-"," 75778809"," 75779184"," 75778809"," 75778963"," 75779046"," 75779184"," 454673995"
"Korean","-0.102122415","0.271930851","-6.937039","6.513421e-11","5.527723e-08","13.844894950","2231","ENSG00000167792","NDUFV1","chr11","+"," 67608225"," 67608722"," 67608225"," 67608478"," 67608551"," 67608722"," 405650923"
"Korean","-0.056925726","0.115563830","-6.817413","1.270798e-10","9.244151e-08","13.188217143","6930","ENSG00000100911","PSME2","chr14","-"," 24144399"," 24145273"," 24144399"," 24145155"," 24145242"," 24145273"," 144869741"
"Korean","-0.172345959","0.511398936","-6.764004","1.709062e-10","1.087818e-07","12.897236277","5573","ENSG00000167522","ANKRD11","chr16","-"," 89286038"," 89288670"," 89286038"," 89286186"," 89288527"," 89288670"," 535724129"
"Korean"," 0.100904821","0.316111702"," 6.711790","2.280384e-10","1.185165e-07","12.614098161","6227","ENSG00000160679","CHTOP","chr1","+","153636571","153638448","153636571","153636653","153638294","153638448"," 921824985"
"Korean"," 0.070381951","0.093827957"," 6.710354","2.352844e-10","1.185165e-07","12.595061939","4326","ENSG00000187531","SIRT7","chr17","-"," 81917829"," 81918132"," 81917829"," 81917967"," 81918038"," 81918132"," 491507927"
"Korean","-0.124048887","0.576819149","-6.686283","2.624181e-10","1.185165e-07","12.476265342","7595","ENSG00000160948","VPS28","chr8","-","144424945","144425772","144424945","144425000","144425682","144425772"," 866552116"
"Korean","-0.059817584","0.108085106","-6.674940","2.793005e-10","1.185165e-07","12.415073720","3991","ENSG00000198830","HMGN2","chr1","+"," 26473482"," 26474135"," 26473482"," 26473732"," 26474084"," 26474135"," 158843050"
"Korean","-0.154203542","0.391952128","-6.644546","3.299876e-10","1.292536e-07","12.251422706","4669","ENSG00000104763","ASAH1","chr8","-"," 18064456"," 18067298"," 18064456"," 18064471"," 18067219"," 18067298"," 108395198"
"Korean","-0.187508926","0.552547872","-6.587318","4.511796e-10","1.641005e-07","11.944537249","4991","ENSG00000175455","CCDC14","chr3","-","123955842","123956115","123955842","123955965","123956045","123956115"," 743735924"
"Korean","-0.047701141","0.097664894","-6.572984","4.878338e-10","1.656033e-07","11.867923968","3988","ENSG00000198830","HMGN2","chr1","+"," 26473482"," 26473732"," 26473482"," 26473527"," 26473702"," 26473732"," 158841657"
"Korean","-0.150595341","0.367648936","-6.512009","6.793370e-10","2.161990e-07","11.543198739","5539","ENSG00000167578","RAB4B","chr19","+"," 40780018"," 40780499"," 40780018"," 40780099"," 40780384"," 40780499"," 244681517"
"Korean"," 0.117250098","0.336968085"," 6.422149","1.103043e-09","3.303939e-07","11.068107347","1055","ENSG00000129197","RPAIN","chr17","+","  5425970","  5428211","  5425970","  5426299","  5428070","  5428211","  32562731"
"Korean","-0.114503807","0.415281915","-6.355911","1.572719e-09","4.449046e-07","10.720591491","2542","ENSG00000197070","ARRDC1","chr9","+","137612895","137613510","137612895","137613006","137613459","137613510"," 825679275"
"Korean"," 0.010381903","0.013127660"," 6.243630","2.854997e-09","7.651391e-07","10.136810838","4573","ENSG00000221983","UBA52","chr19","+"," 18574869"," 18575241"," 18574869"," 18574972"," 18575056"," 18575241"," 111450248"
"Korean","-0.127596223","0.317388298","-6.213478","3.347125e-09","8.521780e-07"," 9.981187339","3331","ENSG00000115282","TTC31","chr2","+"," 74490024"," 74490473"," 74490024"," 74490127"," 74490243"," 74490473"," 446941364"
"Korean","-0.174216498","0.330159574","-6.176700","4.061039e-09","9.847053e-07"," 9.792038444","6887","ENSG00000130305","NSUN5","chr7","-"," 73307582"," 73308553"," 73307582"," 73307757"," 73308430"," 73308553"," 439848457"
"Korean"," 0.078294569","0.221946524"," 6.126703","5.320972e-09","1.214928e-06"," 9.531200716","3068","ENSG00000135945","REV1","chr2","-"," 99402243"," 99402800"," 99402243"," 99402346"," 99402643"," 99402800"," 596415075"
"Korean","-0.103457472","0.256313830","-6.119159","5.487695e-09","1.214928e-06"," 9.497592926","3395","ENSG00000064961","HMG20B","chr19","+","  3573691","  3574586","  3573691","  3573800","  3574382","  3574586","  21444736"
"Korean"," 0.038770043","0.116015957"," 6.062330","7.375408e-09","1.564816e-06"," 9.208578837","6721","ENSG00000198818","SFT2D1","chr6","-","166322856","166324595","166322856","166322886","166324536","166324595"," 997942324"
"Korean","-0.045142984","0.929898936","-6.051263","7.810942e-09","1.590933e-06"," 9.152505577","7236","ENSG00000102316","MAGED2","chrX","+"," 54809721"," 54810213"," 54809721"," 54809808"," 54809922"," 54810213"," 328859598"
"Korean","-0.159364299","0.412622340","-5.991812","1.061873e-08","2.079637e-06"," 8.852458494","2028","ENSG00000140983","RHOT2","chr16","+","   668655","   670175","   668655","   668699","   670122","   670175","   4016481"
"Korean"," 0.018412614","0.034132979"," 5.945604","1.346367e-08","2.539148e-06"," 8.620627489"," 873","ENSG00000051523","CYBA","chr16","-"," 88646115"," 88646838"," 88646115"," 88646197"," 88646754"," 88646838"," 531878857"
"Korean"," 0.021033221","0.057324468"," 5.880174","1.880510e-08","3.419841e-06"," 8.294447643","1843","ENSG00000175899","A2M","chr12","-","  9067711","  9068224","  9067711","  9067839","  9068182","  9068224","  54407891"
"Korean","-0.040773759","0.071122340","-5.797769","2.854846e-08","5.012715e-06"," 7.887164555","4775","ENSG00000265241","RBM8A","chr1","-","145926481","145927077","145926481","145926618","145926808","145927077"," 875560542"
"Korean","-0.078417917","0.166372340","-5.771530","3.258140e-08","5.530150e-06"," 7.758312656","1493","ENSG00000100823","APEX1","chr14","+"," 20455577"," 20456101"," 20455577"," 20455703"," 20455913"," 20456101"," 122734972"
"Korean"," 0.026937077","0.077117021"," 5.715983","4.304297e-08","7.070155e-06"," 7.486880871","6282","ENSG00000169045","HNRNPH1","chr5","-","179617798","179618060","179617798","179617932","179617988","179618060","1077707636"
"Korean"," 0.022372241","0.034502674"," 5.684107","5.079400e-08","8.082595e-06"," 7.328934624","3029","ENSG00000169908","TM4SF1","chr3","-","149375442","149375769","149375442","149375588","149375679","149375769"," 896253689"
"Korean"," 0.074455357","0.282159574"," 5.636556","6.390081e-08","9.860088e-06"," 7.101955013","1438","ENSG00000213983","AP1G2","chr14","-"," 23561511"," 23562415"," 23561511"," 23561635"," 23561961"," 23562415"," 141371448"
"Korean","-0.036365559","0.119542553","-5.539823","1.028908e-07","1.540940e-05"," 6.638313298","4269","ENSG00000127603","MACF1","chr1","+"," 39484600"," 39486987"," 39484600"," 39484730"," 39485537"," 39486987"," 236913441"
"Korean"," 0.185198119","0.494462766"," 5.530230","1.078358e-07","1.568856e-05"," 6.592646720","7060","ENSG00000239665","AL157392.3","chr10","+"," 13654352"," 13655482"," 13654352"," 13654427"," 13655377"," 13655482","  81929472"
"Korean","-0.035027023","0.942117021","-5.497763","1.263538e-07","1.787204e-05"," 6.438507074","6266","ENSG00000244754","N4BP2L2","chr13","-"," 32538617"," 32538792"," 32538617"," 32538684"," 32538777"," 32538792"," 195232279"
"Korean","-0.078343825","0.230989362","-5.470838","1.440334e-07","1.982210e-05"," 6.311169961","1397","ENSG00000165516","KLHDC2","chr14","+"," 49779594"," 49779806"," 49779594"," 49779675"," 49779747"," 49779806"," 298678222"
"Korean","-0.103509956","0.195026596","-5.463544","1.492234e-07","1.999594e-05"," 6.276755484","4060","ENSG00000108788","MLX","chr17","+"," 42568469"," 42568943"," 42568469"," 42568559"," 42568836"," 42568943"," 255412219"
"Korean"," 0.075262624","0.105265957"," 5.358133","2.480300e-07","3.238382e-05"," 5.783083740","5924","ENSG00000107959","PITRM1","chr10","-","  3156929","  3157531","  3156929","  3157064","  3157434","  3157531","  18943418"
"Korean","-0.123789732","0.533101064","-5.319182","2.987527e-07","3.803121e-05"," 5.602444382","7302","ENSG00000214087","ARL16","chr17","-"," 81682033"," 81683126"," 81682033"," 81682149"," 81683012"," 81683126"," 490095479"
"Korean"," 0.117194027","0.686526596"," 5.282384","3.558682e-07","4.419709e-05"," 5.432674397","1808","ENSG00000110888","CAPRIN2","chr12","-"," 30714958"," 30716676"," 30714958"," 30715141"," 30716507"," 30716676"," 184294916"
"Korean","-0.015588110","0.030148936","-5.257226","4.008910e-07","4.738245e-05"," 5.317109413","7032","ENSG00000196262","PPIA","chr7","+"," 44799391"," 44799874"," 44799391"," 44799480"," 44799701"," 44799874"," 268797711"
"Korean","-0.140525366","0.424127660","-5.253117","4.087522e-07","4.738245e-05"," 5.298274015","4968","ENSG00000106009","BRAT1","chr7","-","  2543203","  2543962","  2543203","  2543323","  2543589","  2543962","  15261242"
"Korean","-0.011805105","0.944638298","-5.252766","4.094320e-07","4.738245e-05"," 5.296662270","1716","ENSG00000092841","MYL6","chr12","+"," 56159586"," 56160148"," 56159586"," 56159622"," 56159974"," 56160148"," 336959064"
"Korean","-0.032511970","0.083101064","-5.236458","4.421908e-07","5.003634e-05"," 5.222016313","7101","ENSG00000177106","EPS8L2","chr11","+","   709552","   710486","   709552","   709608","   710421","   710486","   4260105"
"Korean","-0.063914371","0.141723404","-5.216345","4.861179e-07","5.381114e-05"," 5.130186440"," 848","ENSG00000131165","CHMP1A","chr16","-"," 89646526"," 89647331"," 89646526"," 89646714"," 89647202"," 89647331"," 537881630"
"Korean"," 0.054651096","0.843829787"," 5.181463","5.725581e-07","6.203119e-05"," 4.971551546","2196","ENSG00000149273","RPS3","chr11","+"," 75401639"," 75402446"," 75401639"," 75401733"," 75402379"," 75402446"," 452412282"
"Korean","-0.113215221","0.147946237","-5.163306","6.291951e-07","6.674712e-05"," 4.890938639","6937","ENSG00000234456","MAGI2-AS3","chr7","+"," 79458846"," 79459640"," 79458846"," 79458999"," 79459535"," 79459640"," 476755506"
"Korean","-0.151400952","0.845228723","-5.142661","6.862808e-07","6.915466e-05"," 4.796022744","3546","ENSG00000223960","CHROMR","chr2","+","178426365","178430889","178426365","178426680","178430694","178430889","1070571882"
"Korean"," 0.050273747","0.107117021"," 5.141173","6.910510e-07","6.915466e-05"," 4.789313347","3400","ENSG00000165819","METTL3","chr14","-"," 21503172"," 21503829"," 21503172"," 21503577"," 21503663"," 21503829"," 129021242"
"Korean","-0.101931354","0.132085106","-5.140682","6.926330e-07","6.915466e-05"," 4.787098488","7499","ENSG00000179029","TMEM107","chr17","-","  8175756","  8176026","  8175756","  8175857","  8175958","  8176026","  49055379"
"Korean","-0.038275918","0.104138298","-5.118150","7.691200e-07","7.531459e-05"," 4.685655465","7596","ENSG00000160948","VPS28","chr8","-","144424945","144425772","144424945","144425051","144425682","144425772"," 866552167"
"Korean"," 0.054551595","0.097712766"," 5.105973","8.138079e-07","7.818697e-05"," 4.630971175","6248","ENSG00000231500","RPS18","chr6","+"," 33275964"," 33276267"," 33275964"," 33276066"," 33276175"," 33276267"," 199656703"
"Korean","-0.010847110","0.020829787","-5.097774","8.453077e-07","7.970938e-05"," 4.594205119","6001","ENSG00000075624","ACTB","chr7","-","  5528280","  5529400","  5528280","  5528719","  5529160","  5529400","  33173239"
"Korean","-0.134158381","0.357079787","-5.007028","1.283297e-06","1.179789e-04"," 4.190278134","5916","ENSG00000187778","MCRS1","chr12","-"," 49566076"," 49566841"," 49566076"," 49566215"," 49566721"," 49566841"," 297398770"
"Korean"," 0.019820577","0.069824468"," 5.004622","1.297490e-06","1.179789e-04"," 4.179642859","2052","ENSG00000026025","VIM","chr10","+"," 17235168"," 17236379"," 17235168"," 17235389"," 17235845"," 17236379"," 103414328"
"Korean","-0.022939754","0.043207447","-4.970511","1.515828e-06","1.333028e-04"," 4.029292085","2082","ENSG00000126458","RRAS","chr19","-"," 49636823"," 49637130"," 49636823"," 49636926"," 49637042"," 49637130"," 297821874"
"Korean","-0.056687508","0.135994681","-4.970143","1.518374e-06","1.333028e-04"," 4.027670308","7401","ENSG00000175061","SNHG29","chr17","+"," 16439326"," 16440253"," 16439326"," 16439703"," 16440184"," 16440253","  98639045"
"Korean","-0.097257181","0.195898396","-4.943474","1.720714e-06","1.452234e-04"," 3.910096852","4832","ENSG00000137074","APTX","chr9","-"," 32987543"," 32988129"," 32987543"," 32987842"," 32988078"," 32988129"," 197927264"
"Korean","-0.015051431","0.019351064","-4.942698","1.719843e-06","1.452234e-04"," 3.907277087","6242","ENSG00000169738","DCXR","chr17","-"," 82036720"," 82037013"," 82036720"," 82036763"," 82036858"," 82037013"," 492221087"
"Korean"," 0.085830622","0.414015957"," 4.940162","1.739715e-06","1.452234e-04"," 3.896178271","4828","ENSG00000197989","SNHG12","chr1","-"," 28580559"," 28581229"," 28580559"," 28580646"," 28581110"," 28581229"," 171485332"
"Korean"," 0.106947567","0.642090426"," 4.927033","1.846205e-06","1.516270e-04"," 3.838788072","6971","ENSG00000197343","ZNF655","chr7","+"," 99561887"," 99562494"," 99561887"," 99561973"," 99562367"," 99562494"," 597373102"
"Korean","-0.041061029","0.107196809","-4.915396","1.945849e-06","1.572740e-04"," 3.788018293","2025","ENSG00000140983","RHOT2","chr16","+","   668352","   668699","   668352","   668569","   668655","   668699","   4011326"
"Korean","-0.041397552","0.156872340","-4.903700","2.051238e-06","1.632017e-04"," 3.737083629","2233","ENSG00000167792","NDUFV1","chr11","+"," 67610380"," 67611207"," 67610380"," 67610570"," 67610994"," 67611207"," 405664738"
"Korean","-0.031163598","0.055345745","-4.867752","2.410919e-06","1.888677e-04"," 3.581118117","6830","ENSG00000166340","TPP1","chr11","-","  6617625","  6618915","  6617625","  6617776","  6618775","  6618915","  39709631"
"Korean","-0.042843751","0.061595745","-4.857045","2.529356e-06","1.951436e-04"," 3.534838639","5349","ENSG00000159348","CYB5R1","chr1","-","202965886","202966600","202965886","202965993","202966527","202966600","1217797492"
"Korean"," 0.052113151","0.158909574"," 4.848051","2.633191e-06","1.979688e-04"," 3.496019382","5145","ENSG00000182087","TMEM259","chr19","-","  1011579","  1011798","  1011579","  1011663","  1011740","  1011798","   6070157"
"Korean"," 0.028632151","0.090579787"," 4.844676","2.673206e-06","1.979688e-04"," 3.481468176","4154","ENSG00000013441","CLK1","chr2","-","200856890","200857884","200856890","200856985","200857717","200857884","1205144250"
"Korean"," 0.054483617","0.843941489"," 4.843890","2.682609e-06","1.979688e-04"," 3.478080641","5918","ENSG00000089280","FUS","chr16","+"," 31184938"," 31188357"," 31184938"," 31185179"," 31188324"," 31188357"," 187120093"
"Korean","-0.006713850","0.019723404","-4.839938","2.730367e-06","1.986147e-04"," 3.461056621","2487","ENSG00000174444","RPL4","chr15","-"," 66503057"," 66503529"," 66503057"," 66503164"," 66503357"," 66503529"," 399019693"
"Korean","-0.108677993","0.502824468","-4.811727","3.096060e-06","2.203375e-04"," 3.339822276"," 552","ENSG00000169660","HEXD","chr17","+"," 82436666"," 82437363"," 82436666"," 82436738"," 82437167"," 82437363"," 494621963"
"Korean","-0.097122560","0.326500000","-4.810317","3.115534e-06","2.203375e-04"," 3.333775894","1790","ENSG00000135506","OS9","chr12","+"," 57715759"," 57716193"," 57715759"," 57715970"," 57716088"," 57716193"," 346295962"
"Korean","-0.116254054","0.205914894","-4.804852","3.192125e-06","2.226616e-04"," 3.310357766","3762","ENSG00000133226","SRRM1","chr1","+"," 24646666"," 24649029"," 24646666"," 24646789"," 24648858"," 24649029"," 147887037"
"Korean","-0.124137435","0.601010638","-4.790217","3.406278e-06","2.343887e-04"," 3.247754658","2552","ENSG00000148362","PAXX","chr9","+","136992639","136992974","136992639","136992700","136992924","136992974"," 821956850"
"Korean","-0.018765789","0.047319149","-4.763727","3.829767e-06","2.600157e-04"," 3.134810648","6876","ENSG00000143774","GUK1","chr1","+","228147405","228147699","228147405","228147544","228147614","228147699","1368885366"
"Korean","-0.013483385","0.033218085","-4.755148","3.977507e-06","2.664930e-04"," 3.098338663","6002","ENSG00000075624","ACTB","chr7","-","  5529160","  5529663","  5529160","  5529400","  5529534","  5529663","  33176580"
"Korean"," 0.005257753","0.014595745"," 4.743006","4.196047e-06","2.758402e-04"," 3.046807968","2152","ENSG00000087460","GNAS","chr20","+"," 58909349"," 58909579"," 58909349"," 58909423"," 58909520"," 58909579"," 353456799"
"Korean","-0.017580701","0.024707447","-4.741019","4.232900e-06","2.758402e-04"," 3.038384454","2744","ENSG00000185088","RPS27L","chr15","-"," 63153852"," 63155731"," 63153852"," 63154060"," 63155620"," 63155731"," 378928846"
"Korean"," 0.016364511","0.033079787"," 4.738528","4.279531e-06","2.758402e-04"," 3.027830675","6747","ENSG00000182809","CRIP2","chr14","+","105478265","105478507","105478265","105478360","105478449","105478507"," 632870353"
"Korean","-0.154065569","0.188807487","-4.723623","4.584837e-06","2.918249e-04"," 2.962260562","5907","ENSG00000126460","PRRG2","chr19","+"," 49583206"," 49583717"," 49583206"," 49583304"," 49583541"," 49583717"," 297500691"
"Korean","-0.063664472","0.175925532","-4.719438","4.653826e-06","2.925591e-04"," 2.947077183","5172","ENSG00000141959","PFKL","chr21","+"," 44319350"," 44320147"," 44319350"," 44319415"," 44320083"," 44320147"," 265918492"
"Korean"," 0.028759969","0.115952128"," 4.713205","4.782738e-06","2.969964e-04"," 2.920766677","4250","ENSG00000114867","EIF4G1","chr3","+","184331265","184331606","184331265","184331364","184331471","184331606","1105988577"
"Korean"," 0.086514517","0.293542553"," 4.701866","5.026151e-06","3.083513e-04"," 2.872972503","5636","ENSG00000106263","EIF3B","chr7","+","  2379393","  2380740","  2379393","  2379511","  2380203","  2380740","  14279980"
"Korean","-0.071846169","0.240707447","-4.695701","5.163450e-06","3.103360e-04"," 2.847028290","7380","ENSG00000071859","FAM50A","chrX","+","154449680","154449931","154449680","154449735","154449882","154449931"," 926698839"
"Korean"," 0.061774041","0.206558511"," 4.694952","5.180393e-06","3.103360e-04"," 2.843874828","4550","ENSG00000143499","SMYD2","chr1","+","214332017","214334308","214332017","214332192","214334199","214334308","1285999041"
"Korean"," 0.019895640","0.075127660"," 4.679360","5.545168e-06","3.283255e-04"," 2.778381611","4358","ENSG00000163565","IFI16","chr1","+","159051678","159053724","159051678","159052098","159053532","159053724"," 954316434"
"Korean"," 0.021053939","0.027601064"," 4.676060","5.625500e-06","3.292534e-04"," 2.764540322","3429","ENSG00000102901","CENPT","chr16","-"," 67832011"," 67832545"," 67832011"," 67832108"," 67832227"," 67832545"," 406993447"
"Korean","-0.073588461","0.401101064","-4.663495","5.941749e-06","3.438112e-04"," 2.711913069","3654","ENSG00000112146","FBXO9","chr6","+"," 53092733"," 53093561"," 53092733"," 53092824"," 53093465"," 53093561"," 318558877"
"Korean","-0.098619531","0.571494681","-4.654933","6.166995e-06","3.528352e-04"," 2.676116738","5932","ENSG00000141504","SAT2","chr17","-","  7627362","  7627805","  7627362","  7627414","  7627569","  7627805","  45765317"
"Korean"," 0.116822330","0.235187166"," 4.652411","6.255163e-06","3.539032e-04"," 2.670063251","4432","ENSG00000100918","REC8","chr14","+"," 24178605"," 24178916"," 24178605"," 24178672"," 24178776"," 24178916"," 145072490"
"Korean","-0.005914656","0.014276596","-4.644352","6.456745e-06","3.594107e-04"," 2.631951957"," 688","ENSG00000108298","RPL19","chr17","+"," 39202316"," 39203109"," 39202316"," 39202439"," 39202988"," 39203109"," 235216277"
"Korean","-0.074935294","0.242792553","-4.643037","6.493674e-06","3.594107e-04"," 2.626466656","4623","ENSG00000204356","NELFE","chr6","-"," 31953728"," 31954134"," 31953728"," 31953831"," 31954079"," 31954134"," 191723634"
"Korean","-0.062687684","0.173138298","-4.635089","6.721154e-06","3.680012e-04"," 2.593352507","6135","ENSG00000173020","GRK2","chr11","+"," 67284846"," 67285188"," 67284846"," 67284983"," 67285074"," 67285188"," 403710125"
"Korean"," 0.108167471","0.377425532"," 4.613656","7.373602e-06","3.994296e-04"," 2.504271819"," 269","ENSG00000123136","DDX39A","chr19","-"," 14409302"," 14409645"," 14409302"," 14409447"," 14409535"," 14409645","  86456876"
"Korean"," 0.083719116","0.266505319"," 4.596233","7.948546e-06","4.260420e-04"," 2.432102138"," 528","ENSG00000141452","RMC1","chr18","+"," 23530228"," 23530612"," 23530228"," 23530297"," 23530386"," 23530612"," 141182363"
"Korean"," 0.220814821","0.304451087"," 4.594684","8.103224e-06","4.298085e-04"," 2.420146100","5665","ENSG00000198019","FCGR1B","chr1","+","121087820","121088908","121087820","121087841","121088653","121088908"," 726529950"
"Korean","-0.081339826","0.534627660","-4.576718","8.643816e-06","4.537558e-04"," 2.351525024","4664","ENSG00000077454","LRCH4","chr7","-","100576693","100577005","100576693","100576777","100576901","100577005"," 603461074"
"Korean","-0.054315428","0.068840426","-4.573977","8.746072e-06","4.544388e-04"," 2.340226396","6550","ENSG00000203875","SNHG5","chr6","-"," 85677078"," 85677875"," 85677078"," 85677492"," 85677794"," 85677875"," 514065192"
"Korean","-0.007045801","0.015872340","-4.567085","9.008295e-06","4.633358e-04"," 2.311847692"," 782","ENSG00000142534","RPS11","chr19","+"," 49497193"," 49498046"," 49497193"," 49497595"," 49497916"," 49498046"," 296985989"
"Korean","-0.093413130","0.298085106","-4.558878","9.330412e-06","4.751046e-04"," 2.278101171","1027","ENSG00000103365","GGA2","chr16","-"," 23493359"," 23494378"," 23493359"," 23493458"," 23494302"," 23494378"," 140963234"
"Korean","-0.039774649","0.116856383","-4.531201","1.050061e-05","5.293972e-04"," 2.164645552","1630","ENSG00000182196","ARL6IP4","chr12","+","122982468","122982908","122982468","122982538","122982619","122982908"," 737895909"
"Korean","-0.110174084","0.360069892","-4.506546","1.172915e-05","5.855376e-04"," 2.067561619"," 240","ENSG00000064545","TMEM161A","chr19","-"," 19121307"," 19121668"," 19121307"," 19121421"," 19121524"," 19121668"," 114728895"
"Korean","-0.182484004","0.143798913","-4.496411","1.231598e-05","6.088637e-04"," 2.023853719","3392","ENSG00000064961","HMG20B","chr19","+","  3572978","  3573347","  3572978","  3572994","  3573291","  3573347","  21438935"
"Korean","-0.063596422","0.178797872","-4.481458","1.296802e-05","6.349344e-04"," 1.962122282","7393","ENSG00000175061","SNHG29","chr17","+"," 16439326"," 16439703"," 16439326"," 16439414"," 16439527"," 16439703","  98636999"
"Korean","-0.061395346","0.237047872","-4.473776","1.339562e-05","6.496236e-04"," 1.931008290","1962","ENSG00000176986","SEC24C","chr10","+"," 73770279"," 73770798"," 73770279"," 73770471"," 73770708"," 73770798"," 442623333"
"Korean"," 0.017828599","0.035632979"," 4.470128","1.360339e-05","6.534759e-04"," 1.916248030","6548","ENSG00000203875","SNHG5","chr6","-"," 85677006"," 85677492"," 85677006"," 85677191"," 85677423"," 85677492"," 514063610"
"Korean","-0.043629860","0.059302703","-4.467436","1.387636e-05","6.603593e-04"," 1.911817956","4145","ENSG00000182866","LCK","chr1","+"," 32279670"," 32279994"," 32279670"," 32279747"," 32279840"," 32279994"," 193678915"
"Korean"," 0.038814035","0.234441489"," 4.455600","1.446207e-05","6.818599e-04"," 1.857556638","6277","ENSG00000169045","HNRNPH1","chr5","-","179616125","179617110","179616125","179616218","179616868","179617110","1077699556"
"Korean","-0.082302513","0.423143617","-4.436346","1.568063e-05","7.325301e-04"," 1.780013044"," 846","ENSG00000185324","CDK10","chr16","+"," 89693273"," 89694232"," 89693273"," 89693467"," 89694172"," 89694232"," 538162649"
"Korean","-0.034685287","0.086526596","-4.410014","1.750789e-05","8.104562e-04"," 1.674400803","4948","ENSG00000166946","CCNDBP1","chr15","+"," 43185819"," 43186233"," 43185819"," 43185879"," 43186153"," 43186233"," 259116136"
"Korean"," 0.056216243","0.259723404"," 4.399360","1.830388e-05","8.363905e-04"," 1.631815142","7562","ENSG00000089737","DDX24","chr14","-"," 94054995"," 94057897"," 94054995"," 94055184"," 94057821"," 94057897"," 564338789"
"Korean","-0.041571023","0.116909574","-4.398148","1.839665e-05","8.363905e-04"," 1.626973280","2530","ENSG00000141503","MINK1","chr17","+","  4889646","  4890735","  4889646","  4889763","  4890516","  4890735","  29341041"
"Korean","-0.008169913","0.011856383","-4.393685","1.874200e-05","8.445508e-04"," 1.609162479","3082","ENSG00000108107","RPL28","chr19","+"," 55386569"," 55388048"," 55386569"," 55386693"," 55387929"," 55388048"," 332323856"
"Korean","-0.078299940","0.313696809","-4.386566","1.930572e-05","8.623223e-04"," 1.580785377","1116","ENSG00000103266","STUB1","chr16","+","   681792","   682076","   681792","   681880","   682019","   682076","   4091635"
"Korean","-0.082472050","0.215686170","-4.375963","2.017571e-05","8.773247e-04"," 1.538585477","7578","ENSG00000104522","TSTA3","chr8","-","143614319","143614697","143614319","143614453","143614623","143614697"," 861687108"
"Korean","-0.108714046","0.293593583","-4.374747","2.033078e-05","8.773247e-04"," 1.537078295"," 900","ENSG00000136490","LIMD2","chr17","-"," 63698798"," 63699069"," 63698798"," 63698938"," 63699027"," 63699069"," 382193699"
"Korean","-0.050610668","0.163585106","-4.374970","2.025914e-05","8.773247e-04"," 1.534634994","6371","ENSG00000026950","BTN3A1","chr6","+"," 26409893"," 26410032"," 26409893"," 26409914"," 26410005"," 26410032"," 158459769"
"Korean","-0.085958373","0.420930851","-4.374237","2.032083e-05","8.773247e-04"," 1.531724661","5583","ENSG00000166986","MARS1","chr12","+"," 57515919"," 57516337"," 57515919"," 57515991"," 57516244"," 57516337"," 345096747"
"Korean","-0.056596045","0.239159574","-4.350830","2.239075e-05","9.580983e-04"," 1.438888971","1627","ENSG00000182196","ARL6IP4","chr12","+","122981128","122981879","122981128","122981266","122981594","122981879"," 737888874"
"Korean"," 0.033917902","0.126659574"," 4.347768","2.267607e-05","9.622211e-04"," 1.426773732","6934","ENSG00000100911","PSME2","chr14","-"," 24145709"," 24146240"," 24145709"," 24145772"," 24146207"," 24146240"," 144875877"
"Korean","-0.078790155","0.223723404","-4.343564","2.307346e-05","9.709921e-04"," 1.410152291","4615","ENSG00000180098","TRNAU1AP","chr1","+"," 28560632"," 28561398"," 28560632"," 28560732"," 28561345"," 28561398"," 171366137"
"Korean"," 0.031928959","0.093095745"," 4.337930","2.361650e-05","9.807754e-04"," 1.387898084","2875","ENSG00000188313","PLSCR1","chr3","-","146521543","146522053","146521543","146521705","146521832","146522053"," 879130729"
"Korean","-0.084632125","0.208329787","-4.337165","2.369116e-05","9.807754e-04"," 1.384878748","2064","ENSG00000067064","IDI1","chr10","-","  1043300","  1044171","  1043300","  1043393","  1043998","  1044171","   6262333"
"Korean","-0.141632047","0.481744681","-4.325779","2.482975e-05","1.019622e-03"," 1.339980918","5387","ENSG00000138709","LARP1B","chr4","+","128107138","128108901","128107138","128107313","128107882","128108901"," 768647273"
"Korean","-0.041600582","0.170074468","-4.309958","2.649923e-05","1.079473e-03"," 1.277756618","5195","ENSG00000116350","SRSF4","chr1","-"," 29159373"," 29160517"," 29159373"," 29159486"," 29160374"," 29160517"," 174959640"
"Korean","-0.064360925","0.177085106","-4.302101","2.736783e-05","1.106008e-03"," 1.246923165","7589","ENSG00000185122","HSF1","chr8","+","144309771","144311249","144309771","144309896","144311173","144311249"," 865863109"
"Korean","-0.175979317","0.642602151","-4.298797","2.787808e-05","1.117758e-03"," 1.238345675","5069","ENSG00000159214","CCDC24","chr1","+"," 43991846"," 43992387"," 43991846"," 43992004"," 43992211"," 43992387"," 263952681"
"Korean"," 0.006526124","0.010818182"," 4.294095","2.834993e-05","1.127796e-03"," 1.216464847","6763","ENSG00000049759","NEDD4L","chr18","+"," 58383245"," 58385586"," 58383245"," 58383319"," 58385525"," 58385586"," 350306506"
"Korean","-0.009450282","0.022670213","-4.290902","2.865316e-05","1.131022e-03"," 1.203055473"," 874","ENSG00000051523","CYBA","chr16","-"," 88646754"," 88647175"," 88646754"," 88646838"," 88647100"," 88647175"," 531881796"
"Korean"," 0.052798225","0.183239362"," 4.283718","2.950792e-05","1.155802e-03"," 1.174964524","5022","ENSG00000127054","INTS11","chr1","-","  1312225","  1312501","  1312225","  1312368","  1312439","  1312501","   7874259"
"Korean","-0.031654980","0.124281915","-4.263068","3.210302e-05","1.247852e-03"," 1.094434613","1759","ENSG00000123349","PFDN5","chr12","+"," 53295838"," 53296275"," 53295838"," 53295941"," 53296243"," 53296275"," 319776410"
"Korean","-0.145139693","0.830407609","-4.259185","3.293031e-05","1.270312e-03"," 1.078813285"," 700","ENSG00000276070","CCL4L2","chr17","+"," 36211775"," 36212878"," 36211775"," 36211890"," 36212496"," 36212878"," 217273692"
"Korean","-0.106153828","0.433957447","-4.252973","3.344998e-05","1.271476e-03"," 1.055180150","5448","ENSG00000131788","PIAS3","chr1","-","145856346","145857006","145856346","145856431","145856588","145857006"," 875139723"
"Korean","-0.036222492","0.088377660","-4.252900","3.345989e-05","1.271476e-03"," 1.054897354","5983","ENSG00000104894","CD37","chr19","+"," 49335713"," 49337033"," 49335713"," 49335786"," 49336908"," 49337033"," 296018186"
"Korean","-0.086668946","0.413851064","-4.247753","3.416752e-05","1.288748e-03"," 1.034912505","2249","ENSG00000173992","CCS","chr11","+"," 66599115"," 66599636"," 66599115"," 66599253"," 66599458"," 66599636"," 399596213"
"Korean","-0.063931618","0.265409574","-4.243175","3.480893e-05","1.303287e-03"," 1.017154019","1628","ENSG00000182196","ARL6IP4","chr12","+","122981128","122981879","122981128","122981299","122981594","122981879"," 737888907"
"Korean","-0.071486889","0.224026596","-4.230130","3.670027e-05","1.364071e-03"," 0.966643345","6365","ENSG00000172590","MRPL52","chr14","+"," 22829886"," 22830110"," 22829886"," 22829940"," 22830052"," 22830110"," 136979984"
"Korean","-0.064507060","0.823031915","-4.226608","3.722768e-05","1.373648e-03"," 0.953024060","6776","ENSG00000164548","TRA2A","chr7","-"," 23521706"," 23522432"," 23521706"," 23521840"," 23522120"," 23522432"," 141132236"
"Korean","-0.018695232","0.964611702","-4.208534","4.004968e-05","1.466230e-03"," 0.883297146","4424","ENSG00000117616","RSRP1","chr1","-"," 25242248"," 25242705"," 25242248"," 25242426"," 25242538"," 25242705"," 151454870"
"Korean","-0.080112910","0.277579787","-4.206761","4.033731e-05","1.466230e-03"," 0.876469749","3432","ENSG00000102901","CENPT","chr16","-"," 67832227"," 67832545"," 67832227"," 67832315"," 67832454"," 67832545"," 406994313"
"Korean","-0.123399371","0.753324468","-4.205148","4.060064e-05","1.466230e-03"," 0.870261800","2076","ENSG00000150433","TMEM218","chr11","-","125102131","125102809","125102131","125102317","125102636","125102809"," 750614833"
"Korean"," 0.008709259","0.017287234"," 4.197870","4.180960e-05","1.499257e-03"," 0.842270821","3123","ENSG00000132424","PNISR","chr6","-"," 99414571"," 99416428"," 99414571"," 99414690"," 99416348"," 99416428"," 596493036"
"Korean"," 0.014844341","0.041159574"," 4.194125","4.244492e-05","1.511395e-03"," 0.827885691","6468","ENSG00000146192","FGD2","chr6","+"," 37022238"," 37025938"," 37022238"," 37022370"," 37025791"," 37025938"," 222144513"
"Korean"," 0.020577695","0.082308511"," 4.192362","4.274727e-05","1.511591e-03"," 0.821115610","6927","ENSG00000100911","PSME2","chr14","-"," 24144399"," 24145155"," 24144399"," 24144468"," 24145057"," 24145155"," 144868633"
"Korean","-0.085578661","0.179037234","-4.163493","4.800031e-05","1.685638e-03"," 0.710606385","3111","ENSG00000172602","RND1","chr12","-"," 48860996"," 48862118"," 48860996"," 48861131"," 48862008"," 48862118"," 293169367"
"Korean","-0.039867912","0.095228723","-4.159434","4.878669e-05","1.701519e-03"," 0.695118007","4270","ENSG00000108821","COL1A1","chr17","-"," 50186639"," 50187122"," 50186639"," 50186922"," 50187014"," 50187122"," 301121458"
"Korean"," 0.015761391","0.054276596"," 4.148948","5.087540e-05","1.762296e-03"," 0.655167250","1884","ENSG00000075415","SLC25A3","chr12","+"," 98593624"," 98594135"," 98593624"," 98593740"," 98593974"," 98594135"," 591563232"
"Korean","-0.108278429","0.201219251","-4.144680","5.186118e-05","1.784305e-03"," 0.643656183","3631","ENSG00000162512","SDC3","chr1","-"," 30876551"," 30878740"," 30876551"," 30877165"," 30878622"," 30878740"," 185266369"
"Korean","-0.101515021","0.778132979","-4.135716","5.363311e-05","1.832884e-03"," 0.604875251","4701","ENSG00000154134","ROBO3","chr11","+","124877518","124878131","124877518","124877658","124877936","124878131"," 749266892"
"Korean","-0.096896335","0.109010753","-4.131163","5.484845e-05","1.859829e-03"," 0.589028049","3771","ENSG00000117122","MFAP2","chr1","-"," 16976707"," 16976923"," 16976707"," 16976794"," 16976896"," 16976923"," 101860950"
"Korean","-0.072795356","0.405914894","-4.127518","5.541279e-05","1.859829e-03"," 0.573781705","5747","ENSG00000164039","BDH2","chr4","-","103085348","103086540","103085348","103085462","103086479","103086540"," 618515717"
"Korean","-0.043542299","0.100478723","-4.127045","5.551728e-05","1.859829e-03"," 0.571987470","1721","ENSG00000065361","ERBB3","chr12","+"," 56098499"," 56098905"," 56098499"," 56098575"," 56098758"," 56098905"," 336592141"
"Korean","-0.060642492","0.160074468","-4.113571","5.857085e-05","1.949299e-03"," 0.521000508","1791","ENSG00000135506","OS9","chr12","+"," 57715759"," 57716193"," 57715759"," 57715970"," 57716091"," 57716193"," 346295965"
"Korean","-0.005674960","0.013664894","-4.110879","5.919972e-05","1.957435e-03"," 0.510832301","4209","ENSG00000250722","SELENOP","chr5","-"," 42804655"," 42807108"," 42804655"," 42804773"," 42806895"," 42807108"," 256835194"
"Korean","-0.069626296","0.257776596","-4.105916","6.037633e-05","1.959136e-03"," 0.492096428","3573","ENSG00000187514","PTMA","chr2","+","231711347","231711983","231711347","231711419","231711886","231711983","1390269965"
"Korean","-0.111401786","0.478393617","-4.105864","6.038883e-05","1.959136e-03"," 0.491899368","4927","ENSG00000239779","WBP1","chr2","+"," 74459437"," 74459745"," 74459437"," 74459562"," 74459642"," 74459745"," 446757568"
"Korean","-0.050880504","0.184648936","-4.105795","6.040540e-05","1.959136e-03"," 0.491638199","5235","ENSG00000159069","FBXW5","chr9","-","136942546","136942943","136942546","136942695","136942768","136942943"," 821656441"
"Korean","-0.047960778","0.093531915","-4.102384","6.122731e-05","1.973224e-03"," 0.478773222","5302","ENSG00000116741","RGS2","chr1","+","192810165","192810431","192810165","192810267","192810369","192810431","1156861828"
"Korean","-0.085726032","0.627877660","-4.100678","6.164232e-05","1.974105e-03"," 0.472342949","2554","ENSG00000148362","PAXX","chr9","+","136992639","136993243","136992639","136992974","136993052","136993243"," 821957790"
"Korean"," 0.053541891","0.132212766"," 4.083507","6.597245e-05","2.099573e-03"," 0.407735984","1238","ENSG00000140416","TPM1","chr15","+"," 63060868"," 63061273"," 63060868"," 63060939"," 63061197"," 63061273"," 378366418"
"Korean","-0.091959446","0.495808511","-4.077971","6.742931e-05","2.132609e-03"," 0.386954682"," 901","ENSG00000103051","COG4","chr16","-"," 70508405"," 70509388"," 70508405"," 70508464"," 70509230"," 70509388"," 423053280"
"Korean","-0.119337251","0.509547872","-4.074883","6.825518e-05","2.145404e-03"," 0.375373656","3793","ENSG00000137822","TUBGCP4","chr15","+"," 43401715"," 43403799"," 43401715"," 43401850"," 43403682"," 43403799"," 260416560"
"Korean"," 0.077974909","0.223984043"," 4.072538","6.888884e-05","2.152037e-03"," 0.366583151","3674","ENSG00000165644","COMTD1","chr10","-"," 75234937"," 75235178"," 75234937"," 75234992"," 75235059"," 75235178"," 451410281"
"Korean","-0.081517174","0.363454545","-4.067841","7.031614e-05","2.170831e-03"," 0.350296059","3887","ENSG00000169242","EFNA1","chr1","+","155133502","155133780","155133502","155133568","155133729","155133780"," 930801861"
"Korean","-0.030576023","0.097377660","-4.067233","7.034310e-05","2.170831e-03"," 0.346712573","5956","ENSG00000115307","AUP1","chr2","-"," 74529131"," 74529499"," 74529131"," 74529282"," 74529361"," 74529499"," 447175903"
"Korean"," 0.022846369","0.065521277"," 4.063737","7.131752e-05","2.187643e-03"," 0.333628282","4792","ENSG00000118515","SGK1","chr6","-","134173273","134173566","134173273","134173357","134173461","134173566"," 805040496"
"Korean"," 0.013106614","0.035845745"," 4.061691","7.189354e-05","2.192107e-03"," 0.325977816","6112","ENSG00000010278","CD9","chr12","+","  6235475","  6236275","  6235475","  6235565","  6236191","  6236275","  37415256"
"Korean","-0.053302467","0.124186170","-4.059026","7.265073e-05","2.202009e-03"," 0.316014580","1128","ENSG00000086504","MRPL28","chr16","-","   368500","   369220","   368500","   368635","   369067","   369220","   2213142"
"Korean"," 0.060528415","0.686239362"," 4.055729","7.359772e-05","2.217512e-03"," 0.303699804","5586","ENSG00000173209","AHSA2P","chr2","+"," 61185501"," 61186497"," 61185501"," 61185618"," 61186445"," 61186497"," 367116059"
"Korean"," 0.097158800","0.358356383"," 4.040634","7.808679e-05","2.338929e-03"," 0.247411855","2522","ENSG00000185507","IRF7","chr11","-","   615096","   615647","   615096","   615259","   615344","   615647","   3692089"
"Korean"," 0.034547574","0.916414894"," 4.034783","7.989593e-05","2.379123e-03"," 0.225642332","7603","ENSG00000161016","RPL8","chr8","-","144791276","144791495","144791276","144791307","144791370","144791495"," 868748219"
"Korean","-0.016930694","0.044042553","-4.031526","8.092037e-05","2.395227e-03"," 0.213534126"," 681","ENSG00000073584","SMARCE1","chr17","-"," 40630713"," 40632367"," 40630713"," 40631693"," 40632194"," 40632367"," 243790047"
"Korean"," 0.040018542","0.154207447"," 4.030085","8.137752e-05","2.395227e-03"," 0.208180591","2331","ENSG00000255717","SNHG1","chr11","-"," 62855132"," 62855885"," 62855132"," 62855216"," 62855423"," 62855885"," 377132673"
"Korean"," 0.050043085","0.187388298"," 4.027848","8.209203e-05","2.402371e-03"," 0.199873464","5027","ENSG00000127054","INTS11","chr1","-","  1312592","  1313124","  1312592","  1312949","  1313034","  1313124","   7877415"
"Korean","-0.014250235","0.034622340","-4.021613","8.411554e-05","2.447522e-03"," 0.176736325","4497","ENSG00000142949","PTPRF","chr1","+"," 43620094"," 43620579"," 43620094"," 43620221"," 43620453"," 43620579"," 261722020"
"Korean","-0.107909689","0.380962766","-4.013150","8.693817e-05","2.515279e-03"," 0.145380440","1576","ENSG00000120699","EXOSC8","chr13","+"," 37002933"," 37004561"," 37002933"," 37003007"," 37004515"," 37004561"," 222022510"
"Korean","-0.091479402","0.621627660","-4.008571","8.850265e-05","2.533867e-03"," 0.128439375","7581","ENSG00000185189","NRBP2","chr8","-","143839508","143839825","143839508","143839549","143839735","143839825"," 863037950"
"Korean","-0.098777880","0.514797872","-4.008359","8.857586e-05","2.533867e-03"," 0.127654111","5881","ENSG00000145495","MARCHF6","chr5","+"," 10400783"," 10402139"," 10400783"," 10400842"," 10402058"," 10402139","  62408744"
"Korean","-0.109565728","0.648537234","-3.992211","9.431458e-05","2.682960e-03"," 0.068040415","2534","ENSG00000185101","ANO9","chr11","-","   419581","   420615","   419581","   419729","   420462","   420615","   2520583"
"Korean","-0.116952909","0.430680851","-3.982964","9.775849e-05","2.765479e-03"," 0.033993497","6096","ENSG00000213024","NUP62","chr19","-"," 49927693"," 49929504"," 49927693"," 49927815"," 49929325"," 49929504"," 299571534"
"Korean"," 0.016255173","0.052867021"," 3.972982","1.016103e-04","2.858561e-03","-0.002684425","6799","ENSG00000175166","PSMD2","chr3","+","184303319","184303749","184303319","184303466","184303642","184303749","1105821244"
"Korean","-0.067043360","0.860319149","-3.967671","1.037181e-04","2.901827e-03","-0.022167437","4172","ENSG00000142541","RPL13A","chr19","+"," 49489849"," 49490297"," 49489849"," 49490090"," 49490231"," 49490297"," 296940613"
"Korean"," 0.069675177","0.599734043"," 3.959285","1.071312e-04","2.980940e-03","-0.052886403","7396","ENSG00000175061","SNHG29","chr17","+"," 16439326"," 16439703"," 16439326"," 16439414"," 16439659"," 16439703","  98637131"
"Korean","-0.084010671","0.216622340","-3.947720","1.120141e-04","3.099870e-03","-0.095163206","2661","ENSG00000136826","KLF4","chr9","-","107487027","107488267","107487027","107487192","107487294","107488267"," 644925074"
"Korean"," 0.075868773","0.711962766"," 3.938762","1.159408e-04","3.191192e-03","-0.127835979","1809","ENSG00000110888","CAPRIN2","chr12","-"," 30714958"," 30716676"," 30714958"," 30715144"," 30716507"," 30716676"," 184294919"
"Korean"," 0.052527748","0.799223404"," 3.926341","1.216022e-04","3.329024e-03","-0.173034010","2630","ENSG00000140632","GLYR1","chr16","-","  4803202","  4805310","  4803202","  4804148","  4804521","  4805310","  28825693"
"Korean","-0.096608450","0.205803191","-3.918272","1.254200e-04","3.415180e-03","-0.202332845"," 623","ENSG00000169696","ASPSCR1","chr17","+"," 82016799"," 82017113"," 82016799"," 82016869"," 82016940"," 82017113"," 492101633"
"Korean","-0.037927626","0.103393617","-3.916603","1.262238e-04","3.415292e-03","-0.208387173"," 376","ENSG00000099622","CIRBP","chr19","+","  1270927","  1271467","  1270927","  1271036","  1271139","  1271467","   7626963"
"Korean","-0.089646963","0.535308511","-3.915484","1.267656e-04","3.415292e-03","-0.212445605","1484","ENSG00000165792","METTL17","chr14","+"," 20994793"," 20995233"," 20994793"," 20994901"," 20995164"," 20995233"," 125970117"
"Korean","-0.032876390","0.095260638","-3.913492","1.277353e-04","3.423307e-03","-0.219667180"," 221","ENSG00000089356","FXYD3","chr19","+"," 35122764"," 35122954"," 35122764"," 35122839"," 35122917"," 35122954"," 210737192"
"Korean","-0.102688261","0.656484043","-3.904672","1.321139e-04","3.522115e-03","-0.251600845","1056","ENSG00000008517","IL32","chr16","+","  3065368","  3065826","  3065368","  3065494","  3065780","  3065826","  18393662"
"Korean","-0.005359251","0.007723404","-3.903256","1.328297e-04","3.522754e-03","-0.256719580","6142","ENSG00000197756","RPL37A","chr2","+","216499948","216501467","216499948","216500031","216501340","216501467","1299004201"
"Korean"," 0.041840246","0.109579787"," 3.899973","1.345044e-04","3.548686e-03","-0.268588234","3897","ENSG00000178035","IMPDH2","chr3","-"," 49024494"," 49024802"," 49024494"," 49024578"," 49024658"," 49024802"," 294147828"
"Korean"," 0.023075972","0.062361702"," 3.896728","1.361792e-04","3.574353e-03","-0.280309819","4151","ENSG00000060138","YBX3","chr12","-"," 10701959"," 10704148"," 10701959"," 10702134"," 10704050"," 10704148","  64218398"
"Korean","-0.049400994","0.248159574","-3.890664","1.393623e-04","3.637563e-03","-0.302192447","1745","ENSG00000012822","CALCOCO1","chr12","-"," 53713700"," 53714241"," 53713700"," 53713900"," 53714132"," 53714241"," 322283914"
"Korean","-0.075289945","0.355984043","-3.889434","1.400162e-04","3.637563e-03","-0.306625565","5931","ENSG00000141504","SAT2","chr17","-","  7627362","  7627802","  7627362","  7627414","  7627552","  7627802","  45765294"
"Korean","-0.035543138","0.059851064","-3.882676","1.436631e-04","3.713363e-03","-0.330973269","5696","ENSG00000197223","C1D","chr2","-"," 68045987"," 68046410"," 68045987"," 68046043"," 68046343"," 68046410"," 408277180"
"Korean","-0.013645351","0.955914894","-3.872490","1.493303e-04","3.840354e-03","-0.367600811","6768","ENSG00000042493","CAPG","chr2","-"," 85401528"," 85401683"," 85401528"," 85401588"," 85401650"," 85401683"," 512409660"
"Korean","-0.035235385","0.106946809","-3.867783","1.520205e-04","3.874099e-03","-0.384500225","1711","ENSG00000139613","SMARCC2","chr12","-"," 56178403"," 56178847"," 56178403"," 56178534"," 56178809"," 56178847"," 337071843"
"Korean","-0.085795246","0.428500000","-3.867533","1.521642e-04","3.874099e-03","-0.385394229","6088","ENSG00000174233","ADCY6","chr12","-"," 48770765"," 48771973"," 48770765"," 48770970"," 48771709"," 48771973"," 292628155"
"Korean","-0.009373957","0.022127660","-3.864987","1.536400e-04","3.892214e-03","-0.394529375","3482","ENSG00000117632","STMN1","chr1","-"," 25901490"," 25903813"," 25901490"," 25901682"," 25903640"," 25903813"," 155415928"
"Korean","-0.077281608","0.185047872","-3.863109","1.547366e-04","3.900588e-03","-0.401259976","6111","ENSG00000164405","UQCRQ","chr5","+","132866868","132867687","132866868","132867035","132867487","132867687"," 797203632"
"Korean","-0.113940675","0.427207447","-3.850908","1.620466e-04","4.064736e-03","-0.444935545","6421","ENSG00000243649","CFB","chr6","+"," 31947944"," 31948512"," 31947944"," 31948081"," 31948373"," 31948512"," 191689366"
"Korean","-0.092865648","0.262483871","-3.845028","1.662343e-04","4.149339e-03","-0.458424378","6052","ENSG00000037280","FLT4","chr5","-","180613010","180614179","180613010","180613110","180614067","180614179","1083681555"
"Korean","-0.011782536","0.026611702","-3.840931","1.682663e-04","4.179571e-03","-0.480561745","3574","ENSG00000187514","PTMA","chr2","+","231711347","231711983","231711347","231711419","231711889","231711983","1390269968"
"Korean","-0.115823123","0.564186170","-3.837900","1.702008e-04","4.207099e-03","-0.491372384","4949","ENSG00000166946","CCNDBP1","chr15","+"," 43194080"," 43194461"," 43194080"," 43194137"," 43194414"," 43194461"," 259165633"
"Korean","-0.157272216","0.238177419","-3.829915","1.759697e-04","4.328685e-03","-0.522045103","5283","ENSG00000197102","DYNC1H1","chr14","+","102004517","102004950","102004517","102004683","102004761","102004950"," 612028378"
"Korean"," 0.048583221","0.171680851"," 3.826262","1.778238e-04","4.342185e-03","-0.532801029","5028","ENSG00000127054","INTS11","chr1","-","  1313034","  1313592","  1313034","  1313124","  1313508","  1313592","   7879884"
"Korean","-0.019343253","0.034882979","-3.825664","1.782240e-04","4.342185e-03","-0.534926597","5890","ENSG00000090861","AARS1","chr16","-"," 70253918"," 70254734"," 70253918"," 70254038"," 70254620"," 70254734"," 421525962"
"Korean"," 0.014745375","0.049760638"," 3.821226","1.812221e-04","4.394205e-03","-0.550696881"," 303","ENSG00000129351","ILF3","chr19","+"," 10683916"," 10685765"," 10683916"," 10683970"," 10684415"," 10685765","  64107747"
"Korean","-0.012570902","0.019989362","-3.817002","1.841196e-04","4.443303e-03","-0.565689765","2369","ENSG00000167644","C19orf33","chr19","+"," 38304250"," 38304490"," 38304250"," 38304283"," 38304374"," 38304490"," 229826137"
"Korean","-0.101463051","0.252368984","-3.805774","1.923413e-04","4.612800e-03","-0.603779770","2116","ENSG00000137700","SLC37A4","chr11","-","119027627","119028426","119027627","119027872","119028193","119028426"," 714168171"
"Korean","-0.019833221","0.962186170","-3.804500","1.929549e-04","4.612800e-03","-0.609983101","5602","ENSG00000221978","CCNL2","chr1","-","  1390765","  1392803","  1390765","  1390865","  1392678","  1392803","   8350679"
"Korean"," 0.038019338","0.124015957"," 3.798953","1.970032e-04","4.687571e-03","-0.629599689","2633","ENSG00000106948","AKNA","chr9","-","114343707","114346009","114343707","114343803","114345862","114346009"," 686069097"
"Korean","-0.088696044","0.464037234","-3.795197","1.997890e-04","4.727455e-03","-0.642864411","4165","ENSG00000126012","KDM5C","chrX","-"," 53198489"," 53198888"," 53198489"," 53198637"," 53198763"," 53198888"," 319192154"
"Korean","-0.034575672","0.075569149","-3.794198","2.005362e-04","4.727455e-03","-0.646390482","5531","ENSG00000168958","MFF","chr2","+","227328677","227330846","227328677","227328789","227330625","227330846","1363978460"
"Korean","-0.089737036","0.573420213","-3.773972","2.162488e-04","5.074373e-03","-0.717624332","7376","ENSG00000102125","TAZ","chrX","+","154419542","154420094","154419542","154419746","154420031","154420094"," 926519049"
"Korean","-0.011159852","0.024132979","-3.763419","2.249022e-04","5.223630e-03","-0.754659131","6012","ENSG00000171530","TBCA","chr5","-"," 77691240"," 77693352"," 77691240"," 77691498"," 77693265"," 77693352"," 466153947"
"Korean","-0.090449904","0.754287234","-3.763157","2.251216e-04","5.223630e-03","-0.755579615","7375","ENSG00000102125","TAZ","chrX","+","154419542","154420094","154419542","154419623","154420031","154420094"," 926518926"
"Korean","-0.087427794","0.305250000","-3.762481","2.256871e-04","5.223630e-03","-0.757947068","1356","ENSG00000100722","ZC3H14","chr14","+"," 88609266"," 88609803"," 88609266"," 88609403"," 88609714"," 88609803"," 531657255"
"Korean","-0.097214134","0.327356383","-3.758579","2.289804e-04","5.275873e-03","-0.771618025","3902","ENSG00000112759","SLC29A1","chr6","+"," 44229906"," 44230481"," 44229906"," 44230046"," 44230346"," 44230481"," 265381166"
"Korean"," 0.021964422","0.070989362"," 3.751568","2.350111e-04","5.390435e-03","-0.796146729","1662","ENSG00000111144","LTA4H","chr12","-"," 96009093"," 96013258"," 96009093"," 96009148"," 96013187"," 96013258"," 576067037"
"Korean","-0.028536863","0.060579787","-3.749006","2.372522e-04","5.417435e-03","-0.805100504","2898","ENSG00000070413","DGCR2","chr22","-"," 19041057"," 19041959"," 19041057"," 19041294"," 19041806"," 19041959"," 114249132"
"Korean"," 0.019503230","0.060978723"," 3.746484","2.394775e-04","5.443837e-03","-0.813907381","5635","ENSG00000106263","EIF3B","chr7","+","  2378688","  2379242","  2378688","  2378766","  2379133","  2379242","  14273759"
"Korean","-0.069015057","0.190446809","-3.738198","2.469309e-04","5.576588e-03","-0.842815563","6989","ENSG00000185000","DGAT1","chr8","-","144318094","144318362","144318094","144318169","144318260","144318362"," 865909341"
"Korean"," 0.070493110","0.284351064"," 3.737566","2.475076e-04","5.576588e-03","-0.845015529","3963","ENSG00000158850","B4GALT3","chr1","-","161173604","161174049","161173604","161173727","161173858","161174049"," 967042891"
"Korean","-0.101509666","0.782734043","-3.735055","2.498147e-04","5.603773e-03","-0.853764958","6742","ENSG00000163930","BAP1","chr3","-"," 52406252"," 52406907"," 52406252"," 52406322"," 52406828"," 52406907"," 314439468"
"Korean","-0.073259679","0.236228723","-3.733803","2.509719e-04","5.605040e-03","-0.858123112","1262","ENSG00000092531","SNAP23","chr15","+"," 42512954"," 42513447"," 42512954"," 42512996"," 42513398"," 42513447"," 255079196"
"Korean","-0.124762848","0.646491979","-3.730951","2.540027e-04","5.647955e-03","-0.866254785","7442","ENSG00000076864","RAP1GAP","chr1","-"," 21602803"," 21603912"," 21602803"," 21602913"," 21603834"," 21603912"," 129620177"
"Korean","-0.107401002","0.329228723","-3.725937","2.583621e-04","5.719913e-03","-0.885485897","3708","ENSG00000151490","PTPRO","chr12","+"," 15594936"," 15597399"," 15594936"," 15595057"," 15596089"," 15597399","  93575816"
"Korean"," 0.030335565","0.071111702"," 3.724297","2.599285e-04","5.729679e-03","-0.891183975","4138","ENSG00000160789","LMNA","chr1","+","156136213","156137028","156136213","156136436","156136920","156137028"," 936819838"
"Korean","-0.073910059","0.245508021","-3.719481","2.649677e-04","5.765878e-03","-0.906097958","3417","ENSG00000163516","ANKZF1","chr2","+","219233078","219233433","219233078","219233191","219233285","219233433","1315399498"
"Korean","-0.062281674","0.142047872","-3.719822","2.642482e-04","5.765878e-03","-0.906720892","5044","ENSG00000090104","RGS1","chr1","+","192576773","192578385","192576773","192576835","192578221","192578385","1155465372"
"Korean","-0.071857758","0.152005319","-3.719777","2.642918e-04","5.765878e-03","-0.906876375"," 733","ENSG00000232859","LYRM9","chr17","-"," 27878357"," 27880366"," 27878357"," 27879490"," 27880273"," 27880366"," 167277209"
"Korean","-0.025851318","0.195313830","-3.712567","2.713966e-04","5.853151e-03","-0.931877943","2306","ENSG00000108465","CDK5RAP3","chr17","+"," 47971121"," 47971407"," 47971121"," 47971152"," 47971361"," 47971407"," 287827569"
"Korean","-0.115721808","0.276101064","-3.711851","2.721117e-04","5.853151e-03","-0.934357684","3342","ENSG00000132323","ILKAP","chr2","-","238194274","238194870","238194274","238194331","238194804","238194870","1429167423"
"Korean","-0.080105961","0.172585106","-3.711537","2.724267e-04","5.853151e-03","-0.935448062","3388","ENSG00000160179","ABCG1","chr21","+"," 42287888"," 42288312"," 42287888"," 42288073"," 42288210"," 42288312"," 253728683"
"Korean","-0.071765807","0.242962766","-3.705785","2.782439e-04","5.953016e-03","-0.955356762","7463","ENSG00000010327","STAB1","chr3","+"," 52520641"," 52521005"," 52520641"," 52520698"," 52520803"," 52521005"," 315124793"
"Korean","-0.081606014","0.191920213","-3.698543","2.857353e-04","6.081794e-03","-0.980386161","3563","ENSG00000069424","KCNAB2","chr1","+","  6094399","  6095443","  6094399","  6094485","  6095322","  6095443","  36569491"
"Korean","-0.112963010","0.496526596","-3.697670","2.866517e-04","6.081794e-03","-0.983402447","7519","ENSG00000095906","NUBP2","chr16","+","  1786536","  1787831","  1786536","  1786655","  1787676","  1787831","  10723065"
"Korean","-0.038309178","0.072244681","-3.690048","2.947666e-04","6.226698e-03","-1.009695286","4182","ENSG00000073756","PTGS2","chr1","-","186675897","186676713","186675897","186676184","186676466","186676713","1120057870"
"Korean","-0.110471809","0.561361702","-3.688974","2.959271e-04","6.226698e-03","-1.013395802","6408","ENSG00000204482","LST1","chr6","+"," 31587199"," 31588909"," 31587199"," 31587318"," 31588562"," 31588909"," 189528096"
"Korean","-0.032975609","0.127542553","-3.682797","3.026871e-04","6.342728e-03","-1.034664175","3454","ENSG00000132463","GRSF1","chr4","-"," 70825295"," 70826245"," 70825295"," 70825431"," 70826123"," 70826245"," 424954634"
"Korean","-0.070767508","0.289272727","-3.678432","3.079841e-04","6.403744e-03","-1.047815312","7417","ENSG00000156253","RWDD2B","chr21","-"," 29008239"," 29008621"," 29008239"," 29008307"," 29008394"," 29008621"," 174050421"
"Korean","-0.040458098","0.898595745","-3.677931","3.081142e-04","6.403744e-03","-1.051394958","7144","ENSG00000007392","LUC7L","chr16","-","   227241","   228402","   227241","   227336","   228332","   228402","   1366954"
"Korean"," 0.045627732","0.094112299"," 3.671752","3.155794e-04","6.505792e-03","-1.070748832","6436","ENSG00000168477","TNXB","chr6","-"," 32042698"," 32043081"," 32042698"," 32042831"," 32042950"," 32043081"," 192257339"
"Korean","-0.102179822","0.373984043","-3.672253","3.145642e-04","6.505792e-03","-1.070897269","7008","ENSG00000168970","JMJD7-PLA2G4B","chr15","+"," 41842192"," 41842591"," 41842192"," 41842276"," 41842553"," 41842591"," 251054395"
"Korean","-0.031451276","0.079234043","-3.669845","3.173379e-04","6.515663e-03","-1.079160102"," 277","ENSG00000104907","TRMT1","chr19","-"," 13115996"," 13116431"," 13115996"," 13116052"," 13116145"," 13116431","  78697051"
"Korean","-0.083791787","0.271558511","-3.668231","3.192090e-04","6.519577e-03","-1.084693129","4030","ENSG00000077458","FAM76B","chr11","-"," 95788498"," 95789782"," 95788498"," 95788563"," 95789391"," 95789782"," 574734514"
"Korean","-0.068097354","0.118728723","-3.667475","3.200892e-04","6.519577e-03","-1.087284891","1458","ENSG00000100462","PRMT5","chr14","-"," 22928125"," 22928615"," 22928125"," 22928211"," 22928496"," 22928615"," 137570187"
"Korean","-0.075401658","0.349792553","-3.665583","3.223023e-04","6.535458e-03","-1.093769229","5426","ENSG00000172053","QARS1","chr3","-"," 49103344"," 49103706"," 49103344"," 49103409"," 49103630"," 49103706"," 294621139"
"Korean","-0.014045380","0.059180851","-3.664619","3.234359e-04","6.535458e-03","-1.097073141","2029","ENSG00000140983","RHOT2","chr16","+","   669552","   670175","   669552","   669606","   670122","   670175","   4019182"
"Korean","-0.044310708","0.120239362","-3.663421","3.248501e-04","6.538089e-03","-1.101178711","6255","ENSG00000048140","TSPAN17","chr5","+","176652742","176655020","176652742","176652913","176654894","176655020","1059923331"
"Korean","-0.078135840","0.657122340","-3.658943","3.301855e-04","6.619309e-03","-1.116507382","5278","ENSG00000178149","DALRD3","chr3","-"," 49015818"," 49016086"," 49015818"," 49015872"," 49015972"," 49016086"," 294095652"
"Korean"," 0.047019066","0.224308511"," 3.649108","3.421946e-04","6.804714e-03","-1.150115134","2118","ENSG00000186166","CCDC84","chr11","+","119011938","119012254","119011938","119012003","119012148","119012254"," 714072535"
"Korean","-0.040027768","0.130760638","-3.648876","3.424838e-04","6.804714e-03","-1.150909545","1537","ENSG00000070423","RNF126","chr19","-","   648881","   649748","   648881","   648975","   649678","   649748","   3895911"
"Korean","-0.066709519","0.381803191","-3.647930","3.436616e-04","6.804714e-03","-1.154138640","1461","ENSG00000155463","OXA1L","chr14","+"," 22770192"," 22770625"," 22770192"," 22770278"," 22770460"," 22770625"," 136622372"
"Korean","-0.073818332","0.213909574","-3.646729","3.451621e-04","6.804714e-03","-1.158236558","2239","ENSG00000175634","RPS6KB2","chr11","+"," 67433125"," 67433447"," 67433125"," 67433216"," 67433339"," 67433447"," 404599699"
"Korean"," 0.009875793","0.021871658"," 3.645280","3.474520e-04","6.804714e-03","-1.161276304"," 971","ENSG00000140682","TGFB1I1","chr16","+"," 31472170"," 31473556"," 31472170"," 31472201"," 31473440"," 31473556"," 188837093"
"Korean","-0.073978083","0.608632979","-3.645423","3.468002e-04","6.804714e-03","-1.162689378","6642","ENSG00000089820","ARHGAP4","chrX","-","153910170","153910611","153910170","153910404","153910505","153910611"," 923462471"
"Korean"," 0.006403254","0.037856383"," 3.628650","3.685099e-04","7.189472e-03","-1.219779769","3675","ENSG00000100316","RPL3","chr22","-"," 39312883"," 39313310"," 39312883"," 39312984"," 39313190"," 39313310"," 235878560"
"Korean","-0.039085552","0.834015957","-3.622446","3.768589e-04","7.324295e-03","-1.240836808","1518","ENSG00000134884","ARGLU1","chr13","-","106557047","106559657","106557047","106557131","106559431","106559657"," 639349970"
"Korean","-0.021201041","0.041377660","-3.611766","3.916515e-04","7.582850e-03","-1.277015447","7066","ENSG00000163346","PBXIP1","chr1","-","154951470","154951921","154951470","154951535","154951794","154951921"," 929710111"
"Korean"," 0.016453485","0.085500000"," 3.610580","3.933279e-04","7.586461e-03","-1.281028178","5207","ENSG00000234741","GAS5","chr1","-","173866527","173866796","173866527","173866567","173866760","173866796","1043199973"
"Korean","-0.040977095","0.155648936","-3.608373","3.964645e-04","7.618103e-03","-1.288490042","4608","ENSG00000164088","PPM1M","chr3","+"," 52248152"," 52248453"," 52248152"," 52248237"," 52248334"," 52248453"," 313489781"
"Korean","-0.089718662","0.340930851","-3.603876","4.029286e-04","7.713204e-03","-1.303681707","3805","ENSG00000164877","MICALL2","chr7","-","  1440590","  1442484","  1440590","  1440684","  1442191","  1442484","   8649023"
"Korean","-0.153641873","0.866983696","-3.602098","4.076646e-04","7.774637e-03","-1.305469599","1295","ENSG00000114062","UBE3A","chr15","-"," 25407066"," 25409207"," 25407066"," 25407262"," 25409087"," 25409207"," 152448895"
"Korean","-0.021330841","0.069989362","-3.596627","4.135599e-04","7.851717e-03","-1.328140382","6662","ENSG00000143418","CERS2","chr1","-","150966755","150967202","150966755","150966862","150967073","150967202"," 905801849"
"Korean"," 0.006154502","0.017436170"," 3.595799","4.147902e-04","7.851717e-03","-1.330929833","3476","ENSG00000155366","RHOC","chr1","-","112702562","112703119","112702562","112702693","112702998","112703119"," 676217053"
"Korean","-0.107974672","0.799251337","-3.593089","4.193839e-04","7.889234e-03","-1.339043084","6708","ENSG00000164674","SYTL3","chr6","+","158662749","158663378","158662749","158662812","158663204","158663378"," 951978270"
"Korean","-0.193077954","0.560813830","-3.592406","4.198708e-04","7.889234e-03","-1.342361242","5660","ENSG00000114857","NKTR","chr3","+"," 42620015"," 42621516"," 42620015"," 42620043"," 42621428"," 42621516"," 255724533"
"Korean","-0.109454168","0.423026596","-3.589913","4.236405e-04","7.930799e-03","-1.350753084","3147","ENSG00000157353","FCSK","chr16","+"," 70478550"," 70479403"," 70478550"," 70478650"," 70479179"," 70479403"," 422873735"
"Korean","-0.092214638","0.477936170","-3.585533","4.303407e-04","7.999597e-03","-1.365484636","7004","ENSG00000168970","JMJD7-PLA2G4B","chr15","+"," 41834739"," 41835223"," 41834739"," 41834893"," 41834969"," 41835223"," 251009786"
"Korean"," 0.061858435","0.725132979"," 3.585457","4.304575e-04","7.999597e-03","-1.365739362","6083","ENSG00000170909","OSCAR","chr19","-"," 54094669"," 54096153"," 54094669"," 54095357"," 54095871"," 54096153"," 324572872"
"Korean"," 0.050652158","0.190388298"," 3.582349","4.352746e-04","8.059702e-03","-1.376185365","1443","ENSG00000213983","AP1G2","chr14","-"," 23563583"," 23563856"," 23563583"," 23563638"," 23563715"," 23563856"," 141382231"
"Korean","-0.079814380","0.506654255","-3.579756","4.393309e-04","8.105336e-03","-1.384891485","1332","ENSG00000213339","QTRT1","chr19","+"," 10712160"," 10712628"," 10712160"," 10712299"," 10712552"," 10712628","  64274427"
"Korean","-0.022604679","0.118111702","-3.574841","4.471188e-04","8.206377e-03","-1.401381886","2308","ENSG00000108465","CDK5RAP3","chr17","+"," 47973518"," 47974031"," 47973518"," 47973650"," 47973930"," 47974031"," 287842678"
"Korean","-0.066469441","0.145414894","-3.574271","4.480308e-04","8.206377e-03","-1.403293980","2646","ENSG00000254986","DPP3","chr11","+"," 66495205"," 66495489"," 66495205"," 66495268"," 66495364"," 66495489"," 398972020"
"Korean","-0.059273400","0.349388298","-3.566524","4.605934e-04","8.406242e-03","-1.429240585","4752","ENSG00000155363","MOV10","chr1","+","112698286","112699810","112698286","112698789","112699684","112699810"," 676194665"
"Korean","-0.044733178","0.171414894","-3.560500","4.705917e-04","8.558046e-03","-1.449385532","5969","ENSG00000102226","USP11","chrX","+"," 47247071"," 47247419"," 47247071"," 47247221"," 47247303"," 47247419"," 283483504"
"Korean"," 0.036507264","0.107420213"," 3.557025","4.764516e-04","8.622256e-03","-1.460992399","2210","ENSG00000168010","ATG16L2","chr11","+"," 72828358"," 72828776"," 72828358"," 72828508"," 72828728"," 72828776"," 436971504"
"Korean","-0.020321295","0.068372340","-3.556402","4.775091e-04","8.622256e-03","-1.463071714","1792","ENSG00000135506","OS9","chr12","+"," 57718992"," 57720263"," 57718992"," 57719182"," 57720098"," 57720263"," 346317790"
"Korean","-0.117676870","0.259390374","-3.551484","4.865382e-04","8.701891e-03","-1.477467544","7486","ENSG00000171680","PLEKHG5","chr1","-","  6474450","  6475138","  6474450","  6474587","  6475046","  6475138","  38848809"
"Korean"," 0.013338109","0.025010638"," 3.550962","4.868390e-04","8.701891e-03","-1.481217542","2475","ENSG00000132286","TIMM10B","chr11","+","  6481500","  6481852","  6481500","  6481555","  6481756","  6481852","  38890015"
"Korean","-0.068694603","0.217393617","-3.550842","4.870462e-04","8.701891e-03","-1.481616480","5917","ENSG00000144224","UBXN4","chr2","+","135753538","135754277","135753538","135753567","135754158","135754277"," 814523355"
"Korean"," 0.014968778","0.051643617"," 3.548973","4.902920e-04","8.729256e-03","-1.487844595","5203","ENSG00000234741","GAS5","chr1","-","173864256","173865282","173864256","173864704","173865228","173865282","1043189008"
"Korean","-0.061852045","0.167250000","-3.541840","5.028701e-04","8.905279e-03","-1.511592154","5205","ENSG00000234741","GAS5","chr1","-","173865228","173865547","173865228","173865282","173865509","173865547","1043192341"
"Korean","-0.069432723","0.162345745","-3.541388","5.036764e-04","8.905279e-03","-1.513093984","5270","ENSG00000112640","PPP2R5D","chr6","+"," 43007934"," 43008260"," 43007934"," 43008065"," 43008200"," 43008260"," 258048653"
"Korean","-0.078874399","0.278037234","-3.540182","5.058357e-04","8.912509e-03","-1.517103814"," 254","ENSG00000099330","OCEL1","chr19","+"," 17226692"," 17227199"," 17226692"," 17226869"," 17226993"," 17227199"," 103361644"
"Korean","-0.019055420","0.049446809","-3.535971","5.134443e-04","9.015373e-03","-1.531096983","1976","ENSG00000188603","CLN3","chr16","-"," 28491481"," 28491835"," 28491481"," 28491560"," 28491713"," 28491835"," 170949905"
"Korean"," 0.100781554","0.348207447"," 3.532624","5.195687e-04","9.091560e-03","-1.542209431"," 979","ENSG00000103510","KAT8","chr16","+"," 31130745"," 31131359"," 31130745"," 31130900"," 31131194"," 31131359"," 186786302"
"Korean"," 0.041104198","0.163026596"," 3.523921","5.358147e-04","9.328522e-03","-1.571058022","2568","ENSG00000165688","PMPCA","chr9","+","136421831","136423760","136421831","136421976","136423094","136423760"," 818536252"
"Korean"," 0.039385600","0.171601064"," 3.523415","5.367747e-04","9.328522e-03","-1.572735119","5201","ENSG00000234741","GAS5","chr1","-","173864483","173864704","173864483","173864506","173864674","173864704","1043187554"
"Korean"," 0.016824188","0.060143617"," 3.515489","5.520095e-04","9.560655e-03","-1.598950163","4420","ENSG00000196352","CD55","chr1","+","207336692","207337409","207336692","207336818","207337328","207337409","1244022348"
"Korean","-0.094755605","0.345180851","-3.513601","5.556988e-04","9.591926e-03","-1.605188478","7554","ENSG00000105726","ATP13A1","chr19","-"," 19656659"," 19656916"," 19656659"," 19656766"," 19656846"," 19656916"," 117940762"
"","","","","","","","","","","","","","","","","","",""
"Result","logFC","AveExpr","t","P.Value","adj.P.Val","B","ID","GeneID","geneSymbol","chr","strand","riExonStart_0base","riExonEnd","upstreamES","upstreamEE","downstreamES","downstreamEE","unique_event_id"
"Nasal"," 0.156670070","0.85887500"," 7.535669","3.704949e-12","1.865812e-08","16.81912485","2910","ENSG00000013441","CLK1","chr2","-","200859679","200861466","200859679","200859746","200861237","200861466","1205163273"
"Nasal"," 0.153573475","0.91771875"," 6.825719","1.831473e-10","4.611649e-07","12.98165600","7065","ENSG00000137504","CREBZF","chr11","-"," 85660334"," 85661749"," 85660334"," 85660597"," 85661636"," 85661749"," 513966399"
"Nasal","-0.181440890","0.35463125","-6.174093","5.521746e-09","9.269171e-06"," 9.64283254","4091","ENSG00000197989","SNHG12","chr1","-"," 28579532"," 28580646"," 28579532"," 28579981"," 28580559"," 28580646"," 171480896"
"Nasal"," 0.194399019","0.70675000"," 5.796697","3.636352e-08","3.846821e-05"," 7.80184363","1999","ENSG00000113240","CLK4","chr5","-","178616881","178618778","178616881","178616948","178618555","178618778","1071706821"
"Nasal"," 0.147425625","0.33976250"," 5.786677","3.819322e-08","3.846821e-05"," 7.75397110","4084","ENSG00000132424","PNISR","chr6","-"," 99403828"," 99404702"," 99403828"," 99403882"," 99404602"," 99404702"," 596425544"
"Nasal"," 0.052254348","0.07102500"," 5.600374","9.426991e-08","7.912388e-05"," 6.87368074","7061","ENSG00000137500","CCDC90B","chr11","-"," 83273950"," 83274740"," 83273950"," 83273992"," 83274638"," 83274740"," 499646010"
"Nasal"," 0.190518753","0.47691250"," 5.324986","3.466244e-07","2.493715e-04"," 5.60789660","3055","ENSG00000247828","TMEM161B-AS1","chr5","+"," 88269467"," 88282106"," 88269467"," 88270585"," 88282041"," 88282106"," 529655772"
"Nasal"," 0.088620385","0.79163750"," 5.197879","6.234214e-07","3.924438e-04"," 5.03851678","3364","ENSG00000058673","ZC3H11A","chr1","+","203801574","203803016","203801574","203801628","203802956","203803016","1222813764"
"Nasal"," 0.067413211","0.09968125"," 5.139344","8.144195e-07","4.557129e-04"," 4.77955890","7060","ENSG00000137500","CCDC90B","chr11","-"," 83273792"," 83273992"," 83273792"," 83273864"," 83273950"," 83273992"," 499643382"
"Nasal"," 0.017083042","0.02607500"," 5.092959","1.005123e-06","4.596712e-04"," 4.57582957","4168","ENSG00000120694","HSPH1","chr13","-"," 31140183"," 31141259"," 31140183"," 31140309"," 31141121"," 31141259"," 186844314"
"Nasal"," 0.039478071","0.08603750"," 5.087107","1.032069e-06","4.596712e-04"," 4.55021927","2324","ENSG00000100650","SRSF5","chr14","+"," 69768797"," 69769251"," 69768797"," 69768896"," 69769181"," 69769251"," 418614173"
"Nasal"," 0.165200231","0.42026250"," 5.073932","1.095324e-06","4.596712e-04"," 4.49264318","1056","ENSG00000185324","CDK10","chr16","+"," 89693273"," 89694232"," 89693273"," 89693467"," 89694172"," 89694232"," 538162649"
"Nasal"," 0.014285006","0.05747500"," 4.978535","1.679958e-06","6.053770e-04"," 4.07893670","6821","ENSG00000110321","EIF4G2","chr11","-"," 10801660"," 10802209"," 10801660"," 10801774"," 10802048"," 10802209","  64811560"
"Nasal"," 0.164498220","0.42289375"," 4.978137","1.682939e-06","6.053770e-04"," 4.07722329","2327","ENSG00000100650","SRSF5","chr14","+"," 69768797"," 69770540"," 69768797"," 69769251"," 69770466"," 69770540"," 418618391"
"Nasal"," 0.032706678","0.04763125"," 4.935840","2.030870e-06","6.818307e-04"," 3.89562287","5288","ENSG00000114786","ABHD14A-ACY1","chr3","+"," 51987555"," 51988603"," 51987555"," 51987624"," 51988523"," 51988603"," 311928463"
"Nasal"," 0.034687085","0.08105000"," 4.911256","2.264151e-06","7.126416e-04"," 3.79059325","3913","ENSG00000115541","HSPE1","chr2","+","197503038","197503381","197503038","197503128","197503208","197503381","1185019174"
"Nasal"," 0.270381708","0.70700000"," 4.890887","2.503511e-06","7.416282e-04"," 3.71474655","7456","ENSG00000135407","AVIL","chr12","-"," 57807330"," 57807727"," 57807330"," 57807489"," 57807589"," 57807727"," 346845192"
"Nasal"," 0.039240588","0.08193750"," 4.789479","3.859283e-06","1.079742e-03"," 3.27601719","7185","ENSG00000120616","EPC1","chr10","-"," 32291162"," 32292644"," 32291162"," 32291322"," 32292495"," 32292644"," 193751429"
"Nasal"," 0.037675811","0.06279874"," 4.732417","4.962949e-06","1.315443e-03"," 3.03510961","4619","ENSG00000134317","GRHL1","chr2","+","  9958785","  9961436","  9958785","  9958856","  9961045","  9961436","  59760343"
"Nasal"," 0.119431805","0.56641250"," 4.673785","6.351961e-06","1.497518e-03"," 2.79605770","2877","ENSG00000164068","RNF123","chr3","+"," 49720799"," 49721105"," 49720799"," 49720894"," 49721019"," 49721105"," 298325721"
"Nasal"," 0.052638148","0.12841250"," 4.669496","6.469364e-06","1.497518e-03"," 2.77843346","4086","ENSG00000132424","PNISR","chr6","-"," 99414571"," 99416428"," 99414571"," 99414690"," 99416348"," 99416428"," 596493036"
"Nasal"," 0.407261264","0.60069427"," 4.670092","6.541979e-06","1.497518e-03"," 2.77138077","7340","ENSG00000213809","KLRK1","chr12","-"," 10378553"," 10379792"," 10378553"," 10378705"," 10379446"," 10379792","  62274841"
"Nasal"," 0.030703337","0.05544375"," 4.636743","7.437612e-06","1.628514e-03"," 2.64425493","7175","ENSG00000168283","BMI1","chr10","+"," 22326430"," 22326986"," 22326430"," 22326561"," 22326889"," 22326986"," 133960282"
"Nasal"," 0.106993414","0.73246875"," 4.619337","8.007656e-06","1.680273e-03"," 2.57323833","2574","ENSG00000242086","MUC20-OT1","chr3","+","195708133","195708807","195708133","195708268","195708746","195708807","1174250894"
"Nasal"," 0.128123235","0.35878125"," 4.594986","8.876390e-06","1.788060e-03"," 2.47422475","3169","ENSG00000108654","DDX5","chr17","-"," 64500548"," 64502069"," 64500548"," 64500773"," 64502009"," 64502069"," 387008016"
"Nasal"," 0.144318107","0.76200000"," 4.576601","9.591803e-06","1.857859e-03"," 2.39973482","2936","ENSG00000114857","NKTR","chr3","+"," 42619663"," 42621516"," 42619663"," 42619708"," 42621428"," 42621516"," 255723494"
"Nasal"," 0.038870244","0.09510000"," 4.566674","1.000092e-05","1.865357e-03"," 2.35960575","3426","ENSG00000129084","PSMA1","chr11","-"," 14513816"," 14514491"," 14513816"," 14513887"," 14514402"," 14514491","  87084903"
"Nasal"," 0.039918933","0.07575000"," 4.528815","1.172104e-05","2.064052e-03"," 2.20718675","6180","ENSG00000215301","DDX3X","chrX","+"," 41341483"," 41342653"," 41341483"," 41341616"," 41342494"," 41342653"," 248052382"
"Nasal","-0.169140794","0.68360000","-4.525473","1.188592e-05","2.064052e-03"," 2.19377609","3591","ENSG00000117616","RSRP1","chr1","-"," 25243549"," 25245301"," 25243549"," 25243633"," 25245149"," 25245301"," 151466482"
"Nasal","-0.034492058","0.08635625","-4.468631","1.505652e-05","2.527488e-03"," 1.96688997","2235","ENSG00000161960","EIF4A1","chr17","+","  7577826","  7578244","  7577826","  7577916","  7578164","  7578244","  45468220"
"Nasal","-0.072524484","0.12082390","-4.450990","1.625802e-05","2.641142e-03"," 1.89468168","4538","ENSG00000156983","BRPF1","chr3","+","  9745572","  9745930","  9745572","  9745709","  9745811","  9745930","  58474524"
"Nasal"," 0.183414753","0.50228125"," 4.432849","1.745453e-05","2.746907e-03"," 1.82520034","2748","ENSG00000175455","CCDC14","chr3","-","123955842","123956115","123955842","123955965","123956045","123956115"," 743735924"
"Nasal"," 0.068344999","0.10933750"," 4.372096","2.239027e-05","3.360918e-03"," 1.58666147","4875","ENSG00000115317","HTRA2","chr2","+"," 74531338"," 74531702"," 74531338"," 74531371"," 74531596"," 74531702"," 447189047"
"Nasal"," 0.049345165","0.10287500"," 4.368826","2.269087e-05","3.360918e-03"," 1.57389468","1841","ENSG00000135341","MAP3K7","chr6","-"," 90550467"," 90552179"," 90550467"," 90550549"," 90552048"," 90552179"," 543307889"
"Nasal"," 0.015091053","0.02893125"," 4.354654","2.403902e-05","3.458872e-03"," 1.51865197","1500","ENSG00000185088","RPS27L","chr15","-"," 63153852"," 63155731"," 63153852"," 63154060"," 63155620"," 63155731"," 378928846"
"Nasal"," 0.007956657","0.01685000"," 4.336477","2.588113e-05","3.620483e-03"," 1.44800192","2003","ENSG00000143774","GUK1","chr1","+","228145510","228146067","228145510","228145624","228146025","228146067","1368874803"
"Nasal"," 0.012945998","0.02426875"," 4.323441","2.728497e-05","3.713705e-03"," 1.39747476","1842","ENSG00000133706","LARS1","chr5","-","146130017","146131109","146130017","146130158","146131018","146131109"," 876783428"
"Nasal","-0.191834520","0.29383750","-4.305676","2.931603e-05","3.885146e-03"," 1.32881561","3000","ENSG00000048740","CELF2","chr10","+"," 11328925"," 11334358"," 11328925"," 11329097"," 11330455"," 11334358","  67986118"
"Nasal"," 0.129865985","0.90865409"," 4.294119","3.081791e-05","3.979462e-03"," 1.28243165","1128","ENSG00000103067","ESRP2","chr16","-"," 68232576"," 68232815"," 68232576"," 68232717"," 68232760"," 68232815"," 409396259"
"Nasal"," 0.071211003","0.18049375"," 4.239965","3.816476e-05","4.804943e-03"," 1.07678138","4109","ENSG00000164050","PLXNB1","chr3","-"," 48413068"," 48413818"," 48413068"," 48413169"," 48413669"," 48413818"," 290480610"
"Nasal"," 0.125774086","0.23047500"," 4.174242","4.954421e-05","6.085479e-03"," 0.82778385"," 483","ENSG00000160953","PWWP3A","chr19","+","  1357008","  1358464","  1357008","  1357094","  1358393","  1358464","   8146431"
"Nasal"," 0.136793099","0.30183125"," 4.149444","5.462965e-05","6.550355e-03"," 0.73463905","4848","ENSG00000267796","LIN37","chr19","+"," 35753086"," 35754157"," 35753086"," 35753253"," 35754016"," 35754157"," 214521755"
"Nasal"," 0.064288637","0.13421875"," 4.141807","5.629394e-05","6.592936e-03"," 0.70604161","5520","ENSG00000061273","HDAC7","chr12","-"," 47789812"," 47791308"," 47789812"," 47789920"," 47791258"," 47791308"," 286743418"
"Nasal"," 0.046628407","0.08524528"," 4.126647","5.991698e-05","6.857771e-03"," 0.64796568","6028","ENSG00000094631","HDAC6","chrX","+"," 48805630"," 48806464"," 48805630"," 48805671"," 48806367"," 48806464"," 292836226"
"Nasal"," 0.084515845","0.86417500"," 4.108997","6.401136e-05","7.163582e-03"," 0.58366980","4820","ENSG00000164548","TRA2A","chr7","-"," 23521706"," 23522432"," 23521706"," 23521840"," 23522120"," 23522432"," 141132236"
"Nasal"," 0.066537915","0.11454717"," 4.090611","6.896304e-05","7.459687e-03"," 0.51407859","3525","ENSG00000163703","CRELD1","chr3","+","  9943076","  9943515","  9943076","  9943172","  9943380","  9943515","  59659734"
"Nasal"," 0.054240565","0.10107500"," 4.087447","6.961979e-05","7.459687e-03"," 0.50371901","6377","ENSG00000121022","COPS5","chr8","-"," 67043081"," 67045960"," 67043081"," 67043317"," 67045811"," 67045960"," 402267210"
"Nasal"," 0.119341835","0.23588750"," 4.081684","7.119746e-05","7.469801e-03"," 0.48239455","4350","ENSG00000095787","WAC","chr10","+"," 28614566"," 28616362"," 28614566"," 28614685"," 28616175"," 28616362"," 171692716"
"Nasal"," 0.019777949","0.06153750"," 4.070780","7.427614e-05","7.611390e-03"," 0.44211716","2759","ENSG00000144848","ATG3","chr3","-","112532509","112534337","112532509","112532780","112534268","112534337"," 675200740"
"Nasal"," 0.129590206","0.33695625"," 4.060743","7.722211e-05","7.611390e-03"," 0.40511842","6564","ENSG00000137098","SPAG8","chr9","-"," 35810438"," 35810682"," 35810438"," 35810553"," 35810636"," 35810682"," 214863429"
"Nasal"," 0.182859130","0.43618750"," 4.057065","7.832933e-05","7.611390e-03"," 0.39157865","4796","ENSG00000115355","CCDC88A","chr2","-"," 55290654"," 55291775"," 55290654"," 55291164"," 55291675"," 55291775"," 331747697"
"Nasal"," 0.030474829","0.06866875"," 4.052560","7.970633e-05","7.611390e-03"," 0.37500598","3700","ENSG00000165792","METTL17","chr14","+"," 20995900"," 20996292"," 20995900"," 20995951"," 20996208"," 20996292"," 125976543"
"Nasal"," 0.183084366","0.40649057"," 4.051981","8.010398e-05","7.611390e-03"," 0.37160515","3130","ENSG00000082014","SMARCD3","chr7","-","151240424","151241653","151240424","151240522","151241491","151241653"," 907446167"
"Nasal"," 0.193999572","0.78642767"," 4.040327","8.378925e-05","7.814123e-03"," 0.32883791","7258","ENSG00000269609","RPARP-AS1","chr10","+","102451398","102452187","102451398","102451555","102452089","102452187"," 614710814"
"Nasal"," 0.183186994","0.43418868"," 4.034622","8.565173e-05","7.842584e-03"," 0.30793857","2493","ENSG00000099949","LZTR1","chr22","+"," 20994103"," 20994727"," 20994103"," 20994269"," 20994557"," 20994727"," 125966486"
"Nasal"," 0.024635443","0.04605000"," 4.025140","8.859764e-05","7.967459e-03"," 0.27447114","4433","ENSG00000175054","ATR","chr3","-","142467933","142469569","142467933","142468068","142469336","142469569"," 854812408"
"Nasal"," 0.049765086","0.08983648"," 4.019579","9.075425e-05","8.018217e-03"," 0.25294285","1416","ENSG00000140553","UNC45A","chr15","+"," 90948141"," 90948794"," 90948141"," 90948283"," 90948653"," 90948794"," 545690806"
"Nasal"," 0.091005031","0.68327500"," 4.013847","9.252828e-05","8.034007e-03"," 0.23322407","1961","ENSG00000175061","SNHG29","chr17","+"," 16439326"," 16439703"," 16439326"," 16439414"," 16439580"," 16439703","  98637052"
"Nasal"," 0.084605218","0.21556875"," 4.000912","9.723446e-05","8.299538e-03"," 0.18609772","4904","ENSG00000149231","CCDC82","chr11","-"," 96383961"," 96386293"," 96383961"," 96384761"," 96386253"," 96386293"," 578311522"
"Nasal"," 0.114123187","0.38016875"," 3.972974","1.081896e-04","8.993046e-03"," 0.08473447","7443","ENSG00000135473","PAN2","chr12","-"," 56319087"," 56319487"," 56319087"," 56319181"," 56319307"," 56319487"," 337915636"
"Nasal"," 0.058468176","0.14453750"," 3.971183","1.089309e-04","8.993046e-03"," 0.07825346","5015","ENSG00000120896","SORBS3","chr8","+"," 22566660"," 22566868"," 22566660"," 22566713"," 22566821"," 22566868"," 135400590"
"Nasal"," 0.147324136","0.39971250"," 3.965655","1.112486e-04","9.001444e-03"," 0.05827302","5463","ENSG00000246067","RAB30-DT","chr11","+"," 83072622"," 83073604"," 83072622"," 83072804"," 83073302"," 83073604"," 498438558"
"Nasal"," 0.091905414","0.21653125"," 3.960161","1.135984e-04","9.001444e-03"," 0.03843892","5307","ENSG00000131781","FMO5","chr1","-","147224894","147225339","147224894","147225066","147225286","147225339"," 883350818"
"Nasal"," 0.095354842","0.30236875"," 3.958324","1.143948e-04","9.001444e-03"," 0.03180991","3303","ENSG00000096093","EFHC1","chr6","+"," 52452687"," 52454287"," 52452687"," 52452837"," 52454094"," 52454287"," 314720879"
"Nasal"," 0.052585298","0.16481250"," 3.941932","1.217390e-04","9.431959e-03","-0.02721463","5939","ENSG00000234741","GAS5","chr1","-","173864256","173865282","173864256","173864704","173865228","173865282","1043189008"
"Nasal"," 0.113157614","0.35436875"," 3.932572","1.261318e-04","9.624236e-03","-0.06082978","6976","ENSG00000149743","TRPT1","chr11","-"," 64224800"," 64225580"," 64224800"," 64224970"," 64225498"," 64225580"," 385351228"
"Nasal"," 0.105920863","0.27256250"," 3.922407","1.310726e-04","9.851965e-03","-0.09725821","6281","ENSG00000182196","ARL6IP4","chr12","+","122981128","122981879","122981128","122981299","122981570","122981879"," 737888883"
"","","","","","","","","","","","","","","","","","",""
"Result","logFC","AveExpr","t","P.Value","adj.P.Val","B","ID","GeneID","geneSymbol","chr","strand","riExonStart_0base","riExonEnd","upstreamES","upstreamEE","downstreamES","downstreamEE","unique_event_id"
"Bronchial","-0.056865881","0.029821429","-8.837188","1.461841e-15","7.046075e-12","24.51611451","7344","ENSG00000128422","KRT17","chr17","-"," 41621592"," 41622511"," 41621592"," 41621754"," 41622354"," 41622511"," 249732314"
"Bronchial","-0.032442394","0.038976190","-7.300439","1.176154e-11","2.834532e-08","15.63841795"," 853","ENSG00000173812","EIF1","chr17","+"," 41689777"," 41690189"," 41689777"," 41689941"," 41690087"," 41690189"," 250139960"
"Bronchial","-0.033841913","0.027250000","-6.362337","1.903896e-09","3.058926e-06","10.64250629","3302","ENSG00000160789","LMNA","chr1","+","156136213","156137028","156136213","156136436","156136920","156137028"," 936819838"
"Bronchial","-0.043004922","0.047779762","-6.101978","7.297720e-09","8.793753e-06"," 9.32766844","4277","ENSG00000196352","CD55","chr1","+","207336692","207337409","207336692","207336818","207337328","207337409","1244022348"
"Bronchial","-0.017306146","0.020375000","-6.021118","1.100366e-08","1.060753e-05"," 8.92631336","5467","ENSG00000111057","KRT18","chr12","+"," 52950327"," 52950906"," 52950327"," 52950410"," 52950749"," 52950906"," 317703625"
"Bronchial","-0.015077935","0.014678571","-5.851853","2.572180e-08","2.066318e-05"," 8.09727407","6626","ENSG00000170421","KRT8","chr12","-"," 52900587"," 52901219"," 52900587"," 52900683"," 52901158"," 52901219"," 317405453"
"Bronchial","-0.007350603","0.013172619","-5.767106","3.913342e-08","2.694616e-05"," 7.68799141","2668","ENSG00000165272","AQP3","chr9","-"," 33442851"," 33443458"," 33442851"," 33442970"," 33443320"," 33443458"," 200658908"
"Bronchial","-0.036303031","0.037869048","-5.628237","7.720628e-08","4.651679e-05"," 7.02591495","3301","ENSG00000160789","LMNA","chr1","+","156135860","156136436","156135860","156136121","156136213","156136436"," 936816926"
"Bronchial","-0.016559922","0.029833333","-5.491435","1.492695e-07","7.888456e-05"," 6.38438926","6157","ENSG00000215301","DDX3X","chrX","+"," 41346858"," 41347451"," 41346858"," 41347012"," 41347311"," 41347451"," 248082941"
"Bronchial","-0.018511003","0.034041667","-5.472165","1.636609e-07","7.888456e-05"," 6.29489334","2210","ENSG00000161960","EIF4A1","chr17","+","  7574259","  7574678","  7574259","  7574308","  7574545","  7574678","  45446727"
"Bronchial","-0.007430767","0.006607143","-5.395366","2.357046e-07","1.032815e-04"," 5.94038248","6627","ENSG00000170421","KRT8","chr12","-"," 52900587"," 52902072"," 52900587"," 52901219"," 52901863"," 52902072"," 317408400"
"Bronchial","-0.007969295","0.012636905","-5.326129","3.265604e-07","1.224924e-04"," 5.62377477","5264","ENSG00000092841","MYL6","chr12","+"," 56159586"," 56160148"," 56159586"," 56159730"," 56159974"," 56160148"," 336959172"
"Bronchial","-0.121280812","0.182136905","-5.323653","3.303736e-07","1.224924e-04"," 5.61250541","4937","ENSG00000159840","ZYX","chr7","+","143382247","143382685","143382247","143382447","143382592","143382685"," 860294903"
"Bronchial","-0.016193088","0.046446429","-5.298175","3.722186e-07","1.281495e-04"," 5.49676030","7342","ENSG00000186081","KRT5","chr12","-"," 52517896"," 52518163"," 52517896"," 52517992"," 52518102"," 52518163"," 315108212"
"Bronchial","-0.071368060","0.484250000","-5.279311","4.064815e-07","1.306161e-04"," 5.41131742","2584","ENSG00000156976","EIF4A2","chr3","+","186784563","186786051","186784563","186784696","186785882","186786051","1120711806"
"Bronchial","-0.021129837","0.049595238","-5.195616","5.993005e-07","1.805393e-04"," 5.03484023","6150","ENSG00000215301","DDX3X","chrX","+"," 41343215"," 41344128"," 41343215"," 41343351"," 41343736"," 41344128"," 248061773"
"Bronchial","-0.026360745","0.051720238","-4.969619","1.674978e-06","4.749055e-04"," 4.04001993","7469","ENSG00000075415","SLC25A3","chr12","+"," 98593974"," 98595848"," 98593974"," 98594135"," 98595726"," 98595848"," 591569505"
"Bronchial","-0.042718940","0.954892857","-4.937422","1.934290e-06","5.179598e-04"," 3.90093130","5133","ENSG00000167996","FTH1","chr11","-"," 61967311"," 61967631"," 61967311"," 61967371"," 61967457"," 61967631"," 371804712"
"Bronchial","-0.006494288","0.009845238","-4.913087","2.155693e-06","5.230322e-04"," 3.79625247","5881","ENSG00000075624","ACTB","chr7","-","  5528280","  5529400","  5528280","  5528719","  5529160","  5529400","  33173239"
"Bronchial","-0.018647144","0.057988095","-4.911572","2.170258e-06","5.230322e-04"," 3.78974911","6153","ENSG00000215301","DDX3X","chrX","+"," 41343736"," 41344128"," 41343736"," 41343822"," 41344029"," 41344128"," 248063579"
"Bronchial","-0.007707924","0.010279762","-4.851524","2.831090e-06","6.498026e-04"," 3.53314806","5261","ENSG00000092841","MYL6","chr12","+"," 56158683"," 56159730"," 56158683"," 56158711"," 56159586"," 56159730"," 336955123"
"Bronchial","-0.194796498","0.260142857","-4.791237","3.688785e-06","8.081793e-04"," 3.27790677","3844","ENSG00000142910","TINAGL1","chr1","+"," 31583148"," 31584801"," 31583148"," 31583575"," 31584677"," 31584801"," 189504150"
"Bronchial","-0.004448879","0.008529762","-4.740744","4.596078e-06","9.631780e-04"," 3.06598098","7164","ENSG00000205542","TMSB4X","chrX","+"," 12975109"," 12976361"," 12975109"," 12975168"," 12976245"," 12976361","  77854353"
"Bronchial","-0.037253700","0.139702381","-4.724471","4.931933e-06","9.643478e-04"," 2.99804708","4864","ENSG00000168906","MAT2A","chr2","+"," 85542154"," 85542747"," 85542154"," 85542373"," 85542564"," 85542747"," 513254739"
"Bronchial","-0.088770148","0.159880952","-4.721221","5.001804e-06","9.643478e-04"," 2.98449890","4390","ENSG00000117308","GALE","chr1","-"," 23796508"," 23796782"," 23796508"," 23796586"," 23796696"," 23796782"," 142779862"
"Bronchial","-0.073131108","0.147083333","-4.704430","5.378260e-06","9.970467e-04"," 2.91462279","3305","ENSG00000160789","LMNA","chr1","+","156137653","156138757","156137653","156137743","156138487","156138757"," 936829050"
"Bronchial","-0.094882320","0.133750000","-4.608435","8.115711e-06","1.399213e-03"," 2.51879165"," 978","ENSG00000179094","PER1","chr17","-","  8146896","  8147381","  8146896","  8147002","  8147249","  8147381","  48882805"
"Bronchial","-0.023770869","0.040738095","-4.608074","8.128209e-06","1.399213e-03"," 2.51731239"," 651","ENSG00000124155","PIGT","chr20","+"," 45418771"," 45419395"," 45418771"," 45418979"," 45419294"," 45419395"," 272514605"
"Bronchial","-0.022102877","0.041714286","-4.582194","9.072508e-06","1.507913e-03"," 2.41167856","7350","ENSG00000163435","ELF3","chr1","+","202011956","202012436","202011956","202012178","202012343","202012436","1212073305"
"Bronchial","-0.062819290","0.142130952","-4.515618","1.201321e-05","1.930122e-03"," 2.14204992"," 308","ENSG00000105699","LSR","chr19","+"," 35266678"," 35266967"," 35266678"," 35266738"," 35266835"," 35266967"," 211600863"
"Bronchial"," 0.079858701","0.989351190"," 4.451488","1.570102e-05","2.441256e-03"," 1.88523587","5125","ENSG00000064201","TSPAN32","chr11","+","  2314484","  2316667","  2314484","  2314571","  2316575","  2316667","  13893448"
"Bronchial","-0.017948594","0.048470238","-4.436183","1.673030e-05","2.520002e-03"," 1.82436976","6149","ENSG00000215301","DDX3X","chrX","+"," 41342494"," 41342836"," 41342494"," 41342653"," 41342736"," 41342836"," 248056049"
"Bronchial","-0.043205003","0.038982143","-4.427031","1.737642e-05","2.538011e-03"," 1.78805480"," 371","ENSG00000167460","TPM4","chr19","+"," 16088026"," 16089120"," 16088026"," 16088097"," 16089044"," 16089120","  96531433"
"Bronchial","-0.078842469","0.126452381","-4.391942","2.008338e-05","2.786040e-03"," 1.64936033","3848","ENSG00000142910","TINAGL1","chr1","+"," 31585439"," 31586755"," 31585439"," 31585876"," 31586709"," 31586755"," 189516973"
"Bronchial"," 0.095017603","0.244321429"," 4.390167","2.023058e-05","2.786040e-03"," 1.64236692","3159","ENSG00000162755","KLHDC9","chr1","+","161098360","161099062","161098360","161098404","161098665","161099062"," 966591913"
"Bronchial","-0.348714938","0.482553571","-4.379435","2.114288e-05","2.830797e-03"," 1.60013204","2999","ENSG00000064961","HMG20B","chr19","+","  3572978","  3573347","  3572978","  3572994","  3573291","  3573347","  21438935"
"Bronchial","-0.008158153","0.016797619","-4.369304","2.204018e-05","2.871180e-03"," 1.56034116","1986","ENSG00000143774","GUK1","chr1","+","228145510","228146067","228145510","228145624","228146025","228146067","1368874803"
"Bronchial","-0.013087841","0.023208333","-4.290138","3.042658e-05","3.859372e-03"," 1.25191073","1606","ENSG00000100664","EIF5","chr14","+","103339171","103339803","103339171","103339333","103339638","103339803"," 620036919"
"Bronchial","-0.019170100","0.078755952","-4.268902","3.315176e-05","4.097217e-03"," 1.16994261","3146","ENSG00000108654","DDX5","chr17","-"," 64502161"," 64502549"," 64502161"," 64502223"," 64502438"," 64502549"," 387014081"
"Bronchial","-0.006828934","0.016619048","-4.230370","3.870506e-05","4.524099e-03"," 1.02203863","6788","ENSG00000110321","EIF4G2","chr11","-"," 10803479"," 10804050"," 10803479"," 10803590"," 10803898"," 10804050","  64822546"
"Bronchial","-0.013848092","0.049452381","-4.226308","3.933989e-05","4.524099e-03"," 1.00650909","2349","ENSG00000070756","PABPC1","chr8","-","100717772","100718280","100717772","100717888","100718086","100718280"," 604308078"
"Bronchial","-0.011690432","0.029226190","-4.225789","3.942161e-05","4.524099e-03"," 1.00452828"," 702","ENSG00000184009","ACTG1","chr17","-"," 81510926"," 81511626"," 81510926"," 81511108"," 81511187"," 81511626"," 489067399"
"Bronchial","-0.035430026","0.057601190","-4.206583","4.256680e-05","4.771441e-03"," 0.93127337","2115","ENSG00000065357","DGKA","chr12","+"," 55951622"," 55952099"," 55951622"," 55951783"," 55952034"," 55952099"," 335711259"
"Bronchial"," 0.132566365","0.710577381"," 4.194610","4.464765e-05","4.890947e-03"," 0.88574092","2219","ENSG00000143889","HNRNPLL","chr2","-"," 38602437"," 38603036"," 38602437"," 38602600"," 38602856"," 38603036"," 231616402"
"Bronchial","-0.079913457","0.324505952","-4.137750","5.593097e-05","5.990828e-03"," 0.67094321","1886","ENSG00000093134","VNN3","chr6","-","132722925","132723907","132722925","132723054","132723733","132723907"," 796340451"
"Bronchial","-0.007192504","0.018595238","-4.128651","5.797259e-05","6.074520e-03"," 0.63678935","6789","ENSG00000110321","EIF4G2","chr11","-"," 10804286"," 10805015"," 10804286"," 10804418"," 10804912"," 10805015","  64827932"
"Bronchial","-0.021221678","0.046476190","-4.100697","6.469953e-05","6.635143e-03"," 0.53224936","4406","ENSG00000144136","SLC20A1","chr2","+","112660386","112661226","112660386","112660572","112661141","112661226"," 675964937"
"Bronchial","-0.092533363","0.222220238","-4.087120","6.822978e-05","6.851407e-03"," 0.48168322","6595","ENSG00000177685","CRACR2B","chr11","+","   830249","   830713","   830249","   830337","   830620","   830713","   4982881"
"Bronchial","-0.012959674","0.033535714","-4.054587","7.745287e-05","7.618833e-03"," 0.36107034","6156","ENSG00000215301","DDX3X","chrX","+"," 41346228"," 41346622"," 41346228"," 41346410"," 41346504"," 41346622"," 248078614"
"Bronchial","-0.170248553","0.339285714","-4.001374","9.515116e-05","9.172572e-03"," 0.16549262","2474","ENSG00000099949","LZTR1","chr22","+"," 20994103"," 20994727"," 20994103"," 20994269"," 20994557"," 20994727"," 125966486"
"Bronchial","-0.075455129","0.149130952","-3.985450","1.011563e-04","9.527003e-03"," 0.10738001","2544","ENSG00000125733","TRIP10","chr19","+","  6743193","  6743598","  6743193","  6743256","  6743493","  6743598","  40460331"
"Bronchial","-0.008835170","0.054619048","-3.981297","1.027809e-04","9.527003e-03"," 0.09225396","6787","ENSG00000110321","EIF4G2","chr11","-"," 10801660"," 10802209"," 10801660"," 10801774"," 10802048"," 10802209","  64811560"
"Bronchial","-0.033392390","0.067220238","-3.964415","1.096441e-04","9.971407e-03"," 0.03090551","6210","ENSG00000102119","EMD","chrX","+","154379941","154380367","154379941","154380019","154380233","154380367"," 926280868"
"","","","","","","","","","","","","","","","","","",""
